# 3ds Max Wavefront OBJ Exporter v0.99 - (c)2007 guruware
# File Created: 02.09.2021 13:58:56

#
# object Phone_obj
#

v  0.0500 0.1016 -0.1771
v  0.0500 0.1438 -0.1658
v  0.1344 0.1438 -0.1658
v  0.1344 0.1016 -0.1771
v  0.0500 0.0077 0.1731
v  0.1344 0.0077 0.1731
v  0.1344 0.0500 0.1844
v  0.0500 0.0500 0.1844
v  -0.0469 0.1016 -0.1771
v  -0.0469 0.1378 -0.1674
v  -0.0344 0.1378 -0.1674
v  0.1437 0.1147 -0.0571
v  0.1437 0.0791 0.0757
v  0.1437 0.0369 0.0644
v  0.1437 0.0724 -0.0684
v  -0.0437 0.1147 -0.0571
v  -0.0437 0.1087 -0.0587
v  -0.0437 0.0731 0.0741
v  -0.0437 0.0791 0.0757
v  -0.1437 0.1087 -0.0587
v  -0.1437 0.0724 -0.0684
v  -0.1437 0.0369 0.0644
v  -0.1437 0.0731 0.0741
v  0.0500 0.1147 -0.0571
v  0.0500 0.0791 0.0757
v  -0.0469 0.1087 -0.0587
v  -0.0469 0.0731 0.0741
v  0.1437 0.0524 0.1753
v  0.1437 0.0102 0.1640
v  -0.0437 0.0524 0.1753
v  -0.0437 0.0464 0.1737
v  -0.1437 0.0464 0.1737
v  -0.1437 0.0102 0.1640
v  -0.0469 0.0464 0.1737
v  -0.0156 0.1595 -0.1519
v  -0.0156 0.1236 -0.0903
v  0.1156 0.1236 -0.0903
v  0.1156 0.1595 -0.1519
v  -0.0156 0.1414 -0.1567
v  0.1156 0.1414 -0.1567
v  -0.0344 0.0440 0.1828
v  -0.0469 0.0077 0.1731
v  0.1437 0.1414 -0.1567
v  0.1437 0.0991 -0.1680
v  -0.0437 0.1414 -0.1567
v  -0.0437 0.1354 -0.1583
v  -0.1437 0.1354 -0.1583
v  -0.1437 0.0991 -0.1680
v  -0.1344 0.1354 -0.1583
v  -0.1344 0.1087 -0.0587
v  -0.0469 0.1354 -0.1583
v  -0.1344 0.0464 0.1737
v  -0.1344 0.0440 0.1828
v  -0.0469 0.0440 0.1828
v  -0.1344 0.0077 0.1731
v  -0.1344 0.0731 0.0741
v  -0.1344 0.1378 -0.1674
v  -0.1344 0.1058 -0.1566
v  -0.0469 0.1058 -0.1566
v  -0.1344 0.1016 -0.1771
v  -0.0469 0.0216 0.1574
v  -0.1344 0.0216 0.1574
v  -0.0344 0.1438 -0.1658
v  -0.0344 0.0500 0.1844
v  -0.1410 0.0447 0.1801
v  -0.1410 0.0085 0.1704
v  0.1410 0.1431 -0.1631
v  0.1410 0.1009 -0.1744
v  0.1410 0.0507 0.1817
v  0.1410 0.0085 0.1704
v  -0.1410 0.1371 -0.1647
v  -0.1410 0.1009 -0.1744
v  -0.0410 0.1431 -0.1631
v  -0.0410 0.1371 -0.1647
v  -0.0410 0.0507 0.1817
v  -0.0410 0.0447 0.1801
v  0.1227 0.0089 0.1688
v  0.0457 0.0089 0.1688
v  0.0457 0.0993 -0.1688
v  -0.0428 0.0993 -0.1688
v  -0.1312 0.0713 -0.0640
v  -0.1312 0.0370 0.0640
v  0.1312 0.0370 0.0640
v  0.1312 0.0713 -0.0640
v  0.1312 0.0112 0.1600
v  -0.1312 0.0970 -0.1600
v  -0.0428 0.0089 0.1688
v  0.1227 0.0993 -0.1688
v  0.1312 0.0970 -0.1600
v  -0.1312 0.0112 0.1600
v  -0.1227 0.0993 -0.1688
v  -0.1227 0.0089 0.1688
v  -0.1287 0.0096 0.1662
v  0.1287 0.0986 -0.1662
v  0.1287 0.0096 0.1662
v  -0.1287 0.0986 -0.1662
v  0.0457 0.0000 0.1688
v  0.0457 0.0000 0.0640
v  0.1227 0.0000 0.1688
v  0.1287 0.0000 0.1662
v  0.1312 0.0000 0.1600
v  0.1312 0.0000 0.0640
v  0.0457 0.0000 -0.0640
v  0.1312 0.0000 -0.0640
v  0.1312 0.0000 -0.1600
v  0.1227 0.0000 -0.1688
v  0.1287 0.0000 -0.1662
v  0.0457 0.0000 -0.1688
v  -0.0428 0.0000 -0.1688
v  -0.0428 0.0000 -0.0640
v  -0.1227 0.0000 -0.1688
v  -0.1287 0.0000 -0.1662
v  -0.1312 0.0000 -0.0640
v  -0.1312 0.0000 -0.1600
v  -0.0428 0.0000 0.0640
v  -0.1312 0.0000 0.0640
v  -0.1312 0.0000 0.1600
v  -0.1227 0.0000 0.1688
v  -0.1287 0.0000 0.1662
v  -0.0428 0.0000 0.1688
v  -0.1225 0.1009 0.0833
v  -0.1273 0.1042 0.0914
v  -0.1273 0.1275 0.0179
v  -0.1225 0.1224 0.0165
v  -0.1313 0.0648 0.0881
v  -0.1313 0.0256 0.1513
v  -0.1330 0.0351 0.1630
v  -0.1330 0.0813 0.0889
v  -0.1221 0.0687 0.0819
v  -0.1230 0.0835 0.0807
v  -0.1295 0.0694 0.1667
v  -0.1190 0.0975 0.1634
v  -0.1190 0.1243 0.1040
v  -0.1190 0.1494 0.0238
v  -0.1120 0.0337 0.1649
v  -0.1111 0.0242 0.1533
v  -0.0709 0.0242 0.1533
v  -0.0700 0.0337 0.1649
v  -0.1103 0.0688 0.1689
v  -0.0718 0.0688 0.1689
v  -0.0595 0.1224 0.0165
v  -0.0595 0.1009 0.0833
v  -0.0591 0.0835 0.0807
v  -0.0600 0.0687 0.0819
v  -0.0548 0.1275 0.0179
v  -0.0548 0.1042 0.0914
v  -0.0490 0.0351 0.1630
v  -0.0508 0.0256 0.1513
v  -0.0508 0.0648 0.0881
v  -0.0490 0.0813 0.0889
v  -0.0525 0.0694 0.1667
v  -0.0630 0.1243 0.1040
v  -0.0630 0.0975 0.1634
v  -0.0630 0.1494 0.0238
v  -0.0910 0.0458 0.1184
v  -0.0910 0.1003 0.1664
v  -0.1273 0.1440 -0.0574
v  -0.1225 0.1371 -0.0520
v  -0.1330 0.1200 -0.1539
v  -0.1313 0.1060 -0.1486
v  -0.1313 0.1083 -0.0742
v  -0.1330 0.1229 -0.0667
v  -0.1221 0.1085 -0.0669
v  -0.1230 0.1207 -0.0584
v  -0.1295 0.1516 -0.1400
v  -0.1190 0.1678 -0.0583
v  -0.1190 0.1743 -0.1230
v  -0.0700 0.1197 -0.1563
v  -0.0709 0.1057 -0.1510
v  -0.1111 0.1057 -0.1510
v  -0.1120 0.1197 -0.1563
v  -0.0718 0.1522 -0.1422
v  -0.1103 0.1522 -0.1422
v  -0.0595 0.1371 -0.0520
v  -0.0600 0.1085 -0.0669
v  -0.0591 0.1207 -0.0584
v  -0.0548 0.1440 -0.0574
v  -0.0508 0.1083 -0.0742
v  -0.0508 0.1060 -0.1486
v  -0.0490 0.1200 -0.1539
v  -0.0490 0.1229 -0.0667
v  -0.0525 0.1516 -0.1400
v  -0.0630 0.1743 -0.1230
v  -0.0630 0.1678 -0.0583
v  -0.0910 0.1069 -0.1100
v  -0.0910 0.1782 -0.1243
v  -0.0910 0.1528 0.0247
v  -0.0910 0.1277 0.1049
v  -0.0910 0.1712 -0.0574
v  -0.0792 0.0478 0.1992
v  -0.0818 0.0538 0.2035
v  -0.0760 0.0431 0.2216
v  -0.0741 0.0351 0.2167
v  -0.0893 0.0570 0.2085
v  -0.0838 0.0470 0.2257
v  -0.0984 0.0547 0.2088
v  -0.0929 0.0443 0.2266
v  -0.1044 0.0482 0.2043
v  -0.0981 0.0367 0.2239
v  -0.1031 0.0411 0.1980
v  -0.0962 0.0287 0.2191
v  -0.0966 0.0384 0.1914
v  -0.0884 0.0248 0.2150
v  -0.0862 0.0415 0.1902
v  -0.0793 0.0275 0.2140
v  -0.0726 0.0333 0.2419
v  -0.0705 0.0247 0.2381
v  -0.0807 0.0379 0.2444
v  -0.0900 0.0358 0.2441
v  -0.0952 0.0283 0.2413
v  -0.0931 0.0197 0.2375
v  -0.0851 0.0151 0.2350
v  -0.0757 0.0172 0.2353
v  -0.0730 0.0269 0.2610
v  -0.0710 0.0178 0.2589
v  -0.0810 0.0323 0.2612
v  -0.0904 0.0307 0.2595
v  -0.0956 0.0232 0.2568
v  -0.0936 0.0140 0.2547
v  -0.0855 0.0087 0.2544
v  -0.0762 0.0102 0.2562
v  -0.0797 0.0221 0.2806
v  -0.0779 0.0128 0.2793
v  -0.0866 0.0283 0.2777
v  -0.0948 0.0276 0.2723
v  -0.0993 0.0206 0.2676
v  -0.0976 0.0112 0.2663
v  -0.0906 0.0051 0.2692
v  -0.0825 0.0057 0.2746
v  -0.0945 0.0188 0.2955
v  -0.0936 0.0093 0.2951
v  -0.0991 0.0255 0.2903
v  -0.1047 0.0255 0.2823
v  -0.1080 0.0187 0.2764
v  -0.1071 0.0092 0.2759
v  -0.1025 0.0025 0.2812
v  -0.0969 0.0025 0.2891
v  -0.1147 0.0171 0.3051
v  -0.1142 0.0075 0.3048
v  -0.1168 0.0240 0.2987
v  -0.1194 0.0242 0.2894
v  -0.1209 0.0176 0.2825
v  -0.1204 0.0080 0.2822
v  -0.1182 0.0011 0.2886
v  -0.1157 0.0009 0.2980
v  -0.1378 0.0167 0.3080
v  -0.1379 0.0072 0.3077
v  -0.1377 0.0237 0.3013
v  -0.1376 0.0239 0.2917
v  -0.1377 0.0174 0.2847
v  -0.1378 0.0078 0.2844
v  -0.1379 0.0008 0.2911
v  -0.1379 0.0006 0.3007
v  -0.1637 0.0170 0.3039
v  -0.1636 0.0074 0.3037
v  -0.1616 0.0239 0.2976
v  -0.1585 0.0242 0.2884
v  -0.1563 0.0176 0.2817
v  -0.1562 0.0080 0.2815
v  -0.1583 0.0011 0.2878
v  -0.1614 0.0008 0.2970
v  -0.1891 0.0170 0.2914
v  -0.1890 0.0074 0.2912
v  -0.1856 0.0239 0.2857
v  -0.1805 0.0242 0.2776
v  -0.1768 0.0176 0.2717
v  -0.1766 0.0080 0.2715
v  -0.1802 0.0011 0.2771
v  -0.1853 0.0008 0.2853
v  -0.2125 0.0170 0.2732
v  -0.2123 0.0074 0.2730
v  -0.2078 0.0239 0.2684
v  -0.2011 0.0242 0.2615
v  -0.1962 0.0176 0.2565
v  -0.1961 0.0080 0.2564
v  -0.2007 0.0011 0.2611
v  -0.2074 0.0008 0.2680
v  -0.2303 0.0170 0.2509
v  -0.2302 0.0074 0.2508
v  -0.2248 0.0239 0.2473
v  -0.2167 0.0242 0.2421
v  -0.2109 0.0176 0.2383
v  -0.2107 0.0080 0.2382
v  -0.2163 0.0011 0.2418
v  -0.2243 0.0008 0.2470
v  -0.2445 0.0170 0.2258
v  -0.2443 0.0074 0.2257
v  -0.2386 0.0239 0.2228
v  -0.2301 0.0242 0.2184
v  -0.2240 0.0176 0.2152
v  -0.2238 0.0080 0.2151
v  -0.2296 0.0011 0.2181
v  -0.2382 0.0008 0.2225
v  -0.2580 0.0170 0.1965
v  -0.2578 0.0074 0.1964
v  -0.2519 0.0239 0.1940
v  -0.2430 0.0242 0.1904
v  -0.2366 0.0176 0.1878
v  -0.2364 0.0080 0.1877
v  -0.2425 0.0011 0.1902
v  -0.2514 0.0008 0.1938
v  -0.2686 0.0170 0.1644
v  -0.2684 0.0074 0.1643
v  -0.2622 0.0239 0.1628
v  -0.2529 0.0242 0.1606
v  -0.2461 0.0176 0.1590
v  -0.2459 0.0080 0.1589
v  -0.2523 0.0011 0.1605
v  -0.2617 0.0008 0.1627
v  -0.2739 0.0170 0.1309
v  -0.2737 0.0074 0.1309
v  -0.2673 0.0239 0.1303
v  -0.2578 0.0242 0.1295
v  -0.2509 0.0176 0.1288
v  -0.2506 0.0080 0.1288
v  -0.2572 0.0011 0.1294
v  -0.2668 0.0008 0.1302
v  -0.2747 0.0170 0.0994
v  -0.2745 0.0074 0.0995
v  -0.2681 0.0239 0.0998
v  -0.2585 0.0242 0.1002
v  -0.2516 0.0176 0.1005
v  -0.2514 0.0080 0.1005
v  -0.2580 0.0011 0.1002
v  -0.2676 0.0008 0.0998
v  -0.2714 0.0170 0.0738
v  -0.2712 0.0074 0.0738
v  -0.2649 0.0239 0.0754
v  -0.2556 0.0242 0.0776
v  -0.2488 0.0176 0.0793
v  -0.2486 0.0080 0.0793
v  -0.2550 0.0011 0.0778
v  -0.2644 0.0008 0.0755
v  -0.2629 0.0170 0.0511
v  -0.2627 0.0074 0.0513
v  -0.2570 0.0239 0.0542
v  -0.2484 0.0242 0.0587
v  -0.2422 0.0176 0.0620
v  -0.2420 0.0080 0.0621
v  -0.2479 0.0011 0.0590
v  -0.2565 0.0008 0.0545
v  -0.2478 0.0170 0.0302
v  -0.2476 0.0074 0.0304
v  -0.2429 0.0239 0.0347
v  -0.2358 0.0242 0.0412
v  -0.2306 0.0176 0.0459
v  -0.2305 0.0080 0.0460
v  -0.2354 0.0011 0.0416
v  -0.2425 0.0008 0.0351
v  -0.2297 0.0170 0.0136
v  -0.2296 0.0074 0.0138
v  -0.2257 0.0239 0.0189
v  -0.2198 0.0242 0.0265
v  -0.2156 0.0176 0.0320
v  -0.2154 0.0080 0.0322
v  -0.2195 0.0011 0.0269
v  -0.2253 0.0008 0.0193
v  -0.2091 0.0170 0.0017
v  -0.2090 0.0074 0.0019
v  -0.2064 0.0239 0.0078
v  -0.2025 0.0242 0.0165
v  -0.1997 0.0176 0.0229
v  -0.1996 0.0080 0.0231
v  -0.2023 0.0011 0.0171
v  -0.2062 0.0008 0.0083
v  -0.1896 0.0170 -0.0055
v  -0.1895 0.0074 -0.0053
v  -0.1875 0.0239 0.0007
v  -0.1846 0.0242 0.0098
v  -0.1824 0.0176 0.0164
v  -0.1823 0.0080 0.0166
v  -0.1844 0.0011 0.0104
v  -0.1874 0.0008 0.0013
v  -0.1716 0.0170 -0.0100
v  -0.1716 0.0074 -0.0098
v  -0.1706 0.0239 -0.0034
v  -0.1691 0.0242 0.0060
v  -0.1681 0.0176 0.0129
v  -0.1680 0.0080 0.0131
v  -0.1690 0.0011 0.0066
v  -0.1705 0.0008 -0.0029
v  -0.1580 0.0159 -0.0115
v  -0.1642 0.0058 -0.0102
v  -0.1591 0.0239 -0.0041
v  -0.1601 0.0242 0.0055
v  -0.1613 0.0176 0.0125
v  -0.1626 0.0080 0.0128
v  -0.1637 0.0011 0.0063
v  -0.1657 0.0008 -0.0032
v  -0.0801 0.0560 0.1945
v  -0.0815 0.0584 0.1971
v  -0.0857 0.0592 0.1972
v  -0.0881 0.0579 0.1953
v  -0.0902 0.0520 0.1910
v  -0.0888 0.0501 0.1888
v  -0.0856 0.0495 0.1883
v  -0.0828 0.0506 0.1889
v  -0.0810 0.0598 0.1865
v  -0.0822 0.0626 0.1877
v  -0.0863 0.0634 0.1879
v  -0.0886 0.0612 0.1873
v  -0.0909 0.0542 0.1852
v  -0.0895 0.0514 0.1841
v  -0.0864 0.0505 0.1838
v  -0.0835 0.0520 0.1840
v  -0.0842 0.0627 0.1749
v  -0.0858 0.0655 0.1756
v  -0.0900 0.0656 0.1757
v  -0.0919 0.0630 0.1755
v  -0.0931 0.0555 0.1745
v  -0.0912 0.0529 0.1738
v  -0.0880 0.0524 0.1736
v  -0.0854 0.0543 0.1736
v  -0.0882 0.0642 0.1595
v  -0.0903 0.0666 0.1602
v  -0.0945 0.0659 0.1603
v  -0.0959 0.0630 0.1600
v  -0.0955 0.0555 0.1590
v  -0.0933 0.0532 0.1584
v  -0.0900 0.0533 0.1582
v  -0.0878 0.0557 0.1582
v  -0.1518 0.0105 -0.0102
v  -0.1518 0.0013 -0.0101
v  -0.1518 0.0129 -0.0081
v  -0.1518 0.0130 -0.0049
v  -0.1518 0.0111 -0.0027
v  -0.1518 0.0018 -0.0026
v  -0.1518 0.0000 -0.0048
v  -0.1518 -0.0001 -0.0079
v  -0.1312 0.0105 -0.0102
v  -0.1312 0.0013 -0.0101
v  -0.1312 0.0129 -0.0081
v  -0.1312 0.0130 -0.0049
v  -0.1312 0.0111 -0.0027
v  -0.1312 0.0018 -0.0026
v  -0.1312 0.0000 -0.0048
v  -0.1312 -0.0001 -0.0079
# 437 vertices

vn 0.0000 -0.3725 -0.9280
vn 0.0000 0.8661 -0.4999
vn 0.1074 0.7546 -0.6473
vn 0.1819 -0.5137 -0.8385
vn 0.0000 -0.8660 0.5000
vn 0.1067 -0.9474 0.3018
vn 0.1738 0.2125 0.9616
vn 0.0000 0.3205 0.9473
vn 0.0000 -0.6175 -0.7866
vn 0.0000 0.9280 -0.3725
vn -0.0766 0.4447 -0.8924
vn 0.6000 0.7727 0.2070
vn 0.8321 0.5358 0.1436
vn 0.7071 -0.6830 -0.1830
vn 0.6000 -0.7728 -0.2071
vn -0.7071 0.6830 0.1830
vn -0.8944 0.4320 0.1157
vn -0.5547 0.8037 0.2154
vn -0.7071 -0.6830 -0.1830
vn -0.5547 0.8037 0.2153
vn 0.0000 0.9659 0.2588
vn -0.1659 0.9728 0.1619
vn -0.1421 0.9447 0.2954
vn 0.6868 0.6542 0.3167
vn 0.8738 -0.4837 0.0504
vn -0.8738 0.3937 0.2854
vn -0.4319 0.8450 0.3154
vn -0.7791 0.5466 0.3069
vn -0.6868 -0.7250 -0.0528
vn -0.2371 0.9482 -0.2116
vn -0.4496 0.8930 0.0188
vn -0.1972 0.9322 0.3035
vn 0.1657 0.9263 0.3384
vn 0.4496 0.6210 -0.6420
vn -0.1826 0.9763 -0.1164
vn 0.1925 0.9793 0.0633
vn -0.1291 -0.0914 0.9874
vn 0.0000 -0.7866 0.6174
vn 0.7791 0.6269 0.0075
vn 0.6867 -0.6542 -0.3168
vn -0.6951 0.7124 0.0967
vn -0.5730 0.8174 0.0595
vn -0.8206 0.5700 0.0415
vn -0.7992 -0.4866 -0.3528
vn 0.1659 0.8212 0.5459
vn 0.1653 0.9638 0.2091
vn -0.2207 0.8660 0.4488
vn 0.1821 0.9797 0.0837
vn -0.1074 0.3298 0.9379
vn -0.0000 0.8007 0.5991
vn -0.1819 -0.8641 0.4693
vn 0.1659 0.9234 0.3461
vn -0.1820 0.8641 -0.4693
vn 0.4042 0.8322 0.3795
vn -0.4042 0.4524 0.7949
vn -0.0910 -0.5090 -0.8560
vn -0.4042 0.9105 0.0875
vn 0.4042 0.7893 -0.4622
vn -0.2166 0.7491 -0.6261
vn -0.1378 0.5121 0.8478
vn -0.4912 0.3938 0.7770
vn -0.5437 -0.8130 0.2085
vn 0.4912 0.7296 -0.4759
vn 0.5437 -0.5998 -0.5870
vn 0.6485 0.4346 0.6250
vn 0.4118 -0.8471 0.3359
vn -0.6485 0.6888 -0.3240
vn -0.4118 -0.5657 -0.7145
vn -0.6492 0.6885 -0.3234
vn -0.4928 0.7291 -0.4750
vn -0.4928 0.3939 0.7759
vn -0.6492 0.4344 0.6244
vn 0.1073 -0.7991 0.5915
vn 0.0000 -0.6142 0.7892
vn 0.0000 -0.6088 -0.7933
vn 0.0000 -0.4814 -0.8765
vn -0.8320 -0.5358 -0.1436
vn 0.8320 -0.5358 -0.1436
vn 0.7052 -0.7071 -0.0517
vn -0.5567 -0.7539 -0.3489
vn 0.0000 -0.7934 0.6088
vn 0.1655 -0.6164 -0.7698
vn 0.4241 -0.8506 -0.3108
vn -0.5983 -0.7899 -0.1347
vn -0.0825 -0.6147 -0.7844
vn -0.2136 -0.7955 0.5671
vn -0.5943 -0.7682 0.2379
vn 0.5087 -0.6574 -0.5559
vn 0.4659 -0.7921 0.3943
vn -0.3786 -0.6436 -0.6652
vn 0.0000 -0.5547 0.8321
vn 0.0000 -1.0000 0.0000
vn 0.2185 -0.5615 0.7981
vn 0.6519 -0.5815 0.4867
vn 0.6875 -0.7137 0.1343
vn 0.7071 -0.7071 0.0000
vn 0.8321 -0.5547 0.0000
vn 0.8745 -0.4539 -0.1708
vn 0.1092 -0.5615 -0.8202
vn 0.4956 -0.5815 -0.6451
vn 0.0000 -0.5547 -0.8321
vn 0.0000 -0.7071 -0.7071
vn -0.2185 -0.5615 -0.7981
vn -0.6519 -0.5815 -0.4867
vn -0.7071 -0.7071 0.0000
vn -0.8210 -0.5611 -0.1056
vn -0.8321 -0.5547 0.0000
vn -0.8004 -0.5611 0.2112
vn -0.1092 -0.5615 0.8202
vn -0.4956 -0.5815 0.6451
vn 0.0000 -0.7071 0.7071
vn -0.5686 -0.5102 -0.6452
vn -0.9880 0.1142 -0.1039
vn -0.9824 -0.1802 -0.0483
vn -0.3231 -0.9169 -0.2344
vn -0.6752 -0.5095 -0.5334
vn -0.3932 -0.9023 -0.1765
vn -0.6824 -0.3724 0.6290
vn -0.8865 0.0790 -0.4559
vn -0.2259 -0.3802 -0.8969
vn -0.2685 0.0517 -0.9619
vn -0.8396 0.2212 0.4961
vn -0.3430 0.6058 0.7179
vn -0.6844 0.6859 0.2471
vn -0.6239 0.7549 0.2023
vn -0.0451 -0.5482 0.8351
vn -0.0574 -0.9785 0.1983
vn 0.0471 -0.9563 0.2885
vn 0.0451 -0.4051 0.9132
vn -0.0635 -0.0058 0.9980
vn 0.0741 0.0119 0.9972
vn 0.3231 -0.9112 -0.2554
vn 0.5641 -0.2944 -0.7714
vn 0.3186 -0.0028 -0.9479
vn 0.1527 -0.5371 -0.8296
vn 0.9824 -0.1802 -0.0483
vn 0.9880 0.1142 -0.1039
vn 0.6824 -0.3724 0.6290
vn 0.3932 -0.9023 -0.1765
vn 0.6731 -0.4344 -0.5986
vn 0.9220 0.1075 -0.3718
vn 0.8396 0.2212 0.4961
vn 0.6844 0.6859 0.2471
vn 0.3430 0.6058 0.7179
vn 0.6239 0.7549 0.2023
vn -0.0000 -0.8488 -0.5287
vn 0.0000 0.5026 0.8645
vn -0.9880 0.0469 0.1471
vn -0.5641 -0.6407 0.5209
vn -0.6824 -0.0080 -0.7309
vn -0.3932 -0.8697 -0.2983
vn -0.6752 -0.7079 0.2072
vn -0.8865 -0.1596 0.4343
vn -0.2737 -0.8097 0.5191
vn -0.2685 -0.4791 0.8357
vn -0.8396 0.4396 -0.3191
vn -0.6844 0.7176 0.1289
vn -0.3430 0.8836 -0.3188
vn 0.0451 -0.0572 -0.9973
vn 0.0574 -0.7482 -0.6610
vn -0.0471 -0.6840 -0.7280
vn -0.0451 0.1058 -0.9934
vn 0.0635 0.4939 -0.8672
vn -0.0741 0.5089 -0.8576
vn 0.5687 -0.7645 0.3037
vn 0.1215 -0.8295 0.5452
vn 0.3188 -0.4409 0.8390
vn 0.9880 0.0470 0.1471
vn 0.6731 -0.6755 0.3012
vn 0.3932 -0.8697 -0.2983
vn 0.6824 -0.0080 -0.7309
vn 0.9220 -0.0928 0.3758
vn 0.8396 0.4396 -0.3191
vn 0.3430 0.8836 -0.3188
vn 0.6844 0.7176 0.1289
vn -0.0000 -0.9994 0.0334
vn 0.0000 0.8675 -0.4974
vn 0.0000 0.9280 0.3727
vn 0.0000 0.9900 0.1412
vn 0.9804 0.0323 -0.1945
vn 0.7848 0.5584 0.2689
vn 0.7957 0.5923 0.1267
vn 0.9649 -0.0588 -0.2559
vn 0.1299 0.9069 0.4007
vn 0.1856 0.8887 0.4192
vn -0.5688 0.7900 0.2288
vn -0.5488 0.6789 0.4878
vn -0.9390 0.3181 -0.1305
vn -0.9590 0.0732 0.2736
vn -0.8415 -0.1806 -0.5092
vn -0.8088 -0.5792 -0.1019
vn -0.2141 -0.5185 -0.8278
vn -0.1912 -0.8900 -0.4140
vn 0.5532 -0.4374 -0.7090
vn 0.5475 -0.6809 -0.4864
vn 0.8177 0.5551 0.1528
vn 0.9819 -0.1358 -0.1320
vn 0.1790 0.9207 0.3469
vn -0.5674 0.7510 0.3378
vn -0.9822 0.1370 0.1288
vn -0.8177 -0.5546 -0.1542
vn -0.1792 -0.9204 -0.3474
vn 0.5674 -0.7500 -0.3400
vn 0.8106 0.5160 0.2768
vn 0.9698 -0.2180 0.1091
vn 0.1826 0.9420 0.2816
vn -0.5522 0.8249 0.1211
vn -0.9690 0.2193 -0.1138
vn -0.8103 -0.5150 -0.2797
vn -0.1828 -0.9419 -0.2819
vn 0.5526 -0.8243 -0.1231
vn 0.7150 0.4560 0.5300
vn 0.8350 -0.3112 0.4538
vn 0.1811 0.9382 0.2948
vn -0.4523 0.8856 -0.1054
vn -0.8352 0.3109 -0.4537
vn -0.7154 -0.4556 -0.5297
vn -0.1814 -0.9383 -0.2944
vn 0.4519 -0.8858 0.1055
vn 0.5023 0.3963 0.7685
vn 0.5667 -0.3747 0.7338
vn 0.1446 0.9246 0.3525
vn -0.2953 0.9186 -0.2628
vn -0.5700 0.3743 -0.7314
vn -0.5056 -0.3967 -0.7661
vn -0.1455 -0.9247 -0.3519
vn 0.2944 -0.9187 0.2632
vn 0.2539 0.3715 0.8931
vn 0.2686 -0.4021 0.8753
vn 0.0907 0.9175 0.3873
vn -0.1249 0.9328 -0.3381
vn -0.2714 0.4021 -0.8745
vn -0.2564 -0.3716 -0.8923
vn -0.0913 -0.9175 -0.3871
vn 0.1241 -0.9328 0.3383
vn -0.0074 0.3624 0.9320
vn -0.0209 -0.4092 0.9122
vn 0.0103 0.9150 0.4034
vn 0.0214 0.9346 -0.3551
vn 0.0196 0.4092 -0.9122
vn 0.0064 -0.3624 -0.9320
vn -0.0104 -0.9150 -0.4034
vn -0.0219 -0.9346 0.3551
vn -0.2732 0.3638 0.8905
vn -0.2865 -0.4086 0.8666
vn -0.0986 0.9159 0.3891
vn 0.1306 0.9338 -0.3332
vn 0.2849 0.4086 -0.8671
vn 0.2717 -0.3637 -0.8910
vn 0.0983 -0.9159 -0.3892
vn -0.1311 -0.9338 0.3330
vn -0.4908 0.3620 0.7926
vn -0.4899 -0.4068 0.7710
vn -0.2030 0.9152 0.3482
vn 0.2016 0.9334 -0.2970
vn 0.4895 0.4068 -0.7713
vn 0.4898 -0.3620 -0.7931
vn 0.2025 -0.9152 -0.3485
vn -0.2016 -0.9334 0.2969
vn -0.6503 0.3623 0.6677
vn -0.6460 -0.4071 0.6457
vn -0.2722 0.9153 0.2969
vn 0.2621 0.9335 -0.2448
vn 0.6457 0.4071 -0.6460
vn 0.6501 -0.3623 -0.6679
vn 0.2722 -0.9153 -0.2969
vn -0.2623 -0.9335 0.2447
vn -0.7699 0.3613 0.5261
vn -0.7593 -0.4059 0.5086
vn -0.3285 0.9148 0.2349
vn 0.3032 0.9332 -0.1930
vn 0.7588 0.4058 -0.5094
vn 0.7693 -0.3613 -0.5269
vn 0.3284 -0.9148 -0.2352
vn -0.3034 -0.9332 0.1928
vn -0.8293 0.3605 0.4269
vn -0.8148 -0.4052 0.4147
vn -0.3576 0.9146 0.1889
vn 0.3228 0.9329 -0.1595
vn 0.8147 0.4052 -0.4149
vn 0.8291 -0.3606 -0.4273
vn 0.3575 -0.9146 -0.1891
vn -0.3228 -0.9329 0.1595
vn -0.8665 0.3608 0.3450
vn -0.8515 -0.4053 0.3326
vn -0.3735 0.9146 0.1551
vn 0.3374 0.9330 -0.1252
vn 0.8516 0.4054 -0.3323
vn 0.8666 -0.3608 -0.3446
vn 0.3735 -0.9146 -0.1550
vn -0.3374 -0.9330 0.1252
vn -0.9053 0.3614 0.2232
vn -0.8894 -0.4059 0.2105
vn -0.3900 0.9148 0.1050
vn 0.3517 0.9332 -0.0743
vn 0.8894 0.4059 -0.2105
vn 0.9054 -0.3613 -0.2231
vn 0.3900 -0.9148 -0.1049
vn -0.3517 -0.9332 0.0743
vn -0.9284 0.3610 0.0880
vn -0.9106 -0.4055 0.0795
vn -0.4017 0.9147 0.0449
vn 0.3589 0.9331 -0.0244
vn 0.9106 0.4056 -0.0795
vn 0.9284 -0.3610 -0.0880
vn 0.4017 -0.9147 -0.0449
vn -0.3589 -0.9331 0.0244
vn -0.9314 0.3613 -0.0444
vn -0.9125 -0.4058 -0.0516
vn -0.4038 0.9148 -0.0111
vn 0.3583 0.9332 0.0289
vn 0.9124 0.4059 0.0524
vn 0.9314 -0.3613 0.0450
vn 0.4037 -0.9148 0.0112
vn -0.3583 -0.9332 -0.0286
vn -0.9055 0.3625 -0.2205
vn -0.8846 -0.4070 -0.2278
vn -0.3941 0.9153 -0.0837
vn 0.3437 0.9336 0.1017
vn 0.8842 0.4070 0.2294
vn 0.9052 -0.3625 0.2220
vn 0.3940 -0.9153 0.0840
vn -0.3438 -0.9336 -0.1013
vn -0.8243 0.3629 -0.4344
vn -0.8012 -0.4077 -0.4380
vn -0.3621 0.9155 -0.1753
vn 0.3072 0.9337 0.1841
vn 0.8009 0.4076 0.4386
vn 0.8239 -0.3629 0.4354
vn 0.3619 -0.9155 0.1757
vn -0.3072 -0.9337 -0.1840
vn -0.7009 0.3621 -0.6146
vn -0.6800 -0.4064 -0.6103
vn -0.3102 0.9150 -0.2579
vn 0.2595 0.9334 0.2477
vn 0.6796 0.4065 0.6106
vn 0.7007 -0.3621 0.6148
vn 0.3102 -0.9150 0.2579
vn -0.2597 -0.9334 -0.2476
vn -0.5558 0.3620 -0.7484
vn -0.5352 -0.4069 -0.7403
vn -0.2494 0.9152 -0.3164
vn 0.2003 0.9334 0.2977
vn 0.5346 0.4069 0.7406
vn 0.5552 -0.3621 0.7488
vn 0.2492 -0.9152 0.3166
vn -0.2005 -0.9334 -0.2976
vn -0.4004 0.3614 -0.8421
vn -0.3846 -0.4057 -0.8291
vn -0.1813 0.9147 -0.3611
vn 0.1434 0.9332 0.3295
vn 0.3849 0.4057 0.8290
vn 0.4005 -0.3614 0.8420
vn 0.1812 -0.9147 0.3612
vn -0.1433 -0.9332 -0.3296
vn -0.2782 0.3608 -0.8902
vn -0.2670 -0.4055 -0.8742
vn -0.1263 0.9147 -0.3840
vn 0.0988 0.9330 0.3460
vn 0.2662 0.4055 0.8745
vn 0.2778 -0.3609 0.8903
vn 0.1263 -0.9147 0.3840
vn -0.0992 -0.9330 -0.3459
vn -0.1507 0.3588 -0.9212
vn -0.1730 -0.4140 -0.8937
vn -0.0715 0.9149 -0.3973
vn 0.0425 0.9332 0.3569
vn 0.1329 0.4061 0.9041
vn 0.1445 -0.3614 0.9212
vn 0.0716 -0.9149 0.3973
vn -0.0690 -0.9417 -0.3294
vn 0.1994 0.2970 -0.9338
vn -0.0947 -0.4655 -0.8799
vn 0.4355 0.8094 -0.3940
vn 0.5308 0.7950 0.2935
vn 0.5296 0.3327 0.7803
vn 0.3575 -0.3908 0.8483
vn 0.0874 -0.9163 0.3908
vn -0.1030 -0.9544 -0.2803
vn 0.9975 0.0649 -0.0286
vn 0.6886 0.6634 0.2928
vn -0.1312 0.9588 0.2519
vn -0.7190 0.6949 -0.0106
vn -0.9198 0.2550 -0.2982
vn -0.7368 -0.3157 -0.5978
vn -0.0043 -0.6888 -0.7249
vn 0.7283 -0.5107 -0.4569
vn 0.9857 0.1215 -0.1165
vn 0.6093 0.7784 0.1509
vn -0.3035 0.8972 0.3209
vn -0.8610 0.4300 0.2716
vn -0.9792 -0.1563 0.1294
vn -0.6126 -0.7886 -0.0534
vn 0.0934 -0.9739 -0.2070
vn 0.7734 -0.5781 -0.2601
vn 0.9509 0.2410 -0.1941
vn 0.4885 0.8725 -0.0082
vn -0.4369 0.8730 0.2166
vn -0.9072 0.3315 0.2591
vn -0.9516 -0.2608 0.1627
vn -0.5211 -0.8535 0.0052
vn 0.2311 -0.9610 -0.1520
vn 0.8470 -0.4825 -0.2230
vn 0.8696 0.4534 -0.1954
vn 0.2173 0.9760 -0.0106
vn -0.6726 0.7138 0.1953
vn -0.9645 0.1540 0.2144
vn -0.8679 -0.4801 0.1279
vn -0.2890 -0.9573 0.0031
vn 0.4673 -0.8749 -0.1275
vn 0.9457 -0.2521 -0.2054
vn 0.1229 0.3166 -0.9406
vn -0.0944 -0.4714 -0.8768
vn 0.3889 0.8388 -0.3811
vn 0.5089 0.7962 0.3272
vn 0.5284 0.2887 0.7984
vn 0.4111 -0.4597 0.7872
vn 0.1570 -0.9243 0.3478
vn -0.0577 -0.9674 -0.2465
vn 0.0000 0.2324 -0.9726
vn 0.0000 -0.6480 -0.7617
vn 0.0000 0.8386 -0.5447
vn 0.0000 0.9788 0.2050
vn 0.0000 0.5498 0.8353
vn 0.0000 -0.2759 0.9612
vn 0.0000 -0.8891 0.4578
vn 0.0000 -0.9886 -0.1505
# 427 vertex normals

vt 0.1391 0.8009 0.0000
vt 0.2007 0.8009 0.0000
vt 0.2007 0.9198 0.0000
vt 0.1391 0.9198 0.0000
vt 0.4213 0.7806 0.0000
vt 0.4214 0.8995 0.0000
vt 0.3597 0.8996 0.0000
vt 0.3596 0.7807 0.0000
vt 0.1391 0.6644 0.0000
vt 0.1919 0.6644 0.0000
vt 0.1919 0.6819 0.0000
vt 0.8476 0.3616 0.0000
vt 0.8475 0.1679 0.0000
vt 0.9091 0.1679 0.0000
vt 0.9092 0.3616 0.0000
vt 0.9910 0.8259 0.0000
vt 0.9822 0.8259 0.0000
vt 0.9821 0.6322 0.0000
vt 0.9909 0.6322 0.0000
vt 0.9724 0.3616 0.0000
vt 0.9195 0.3616 0.0000
vt 0.9195 0.1679 0.0000
vt 0.9723 0.1679 0.0000
vt 0.6814 0.3546 0.0000
vt 0.5493 0.3546 0.0000
vt 0.5493 0.1608 0.0000
vt 0.6814 0.1608 0.0000
vt 0.8305 0.3546 0.0000
vt 0.8261 0.3546 0.0000
vt 0.8261 0.1608 0.0000
vt 0.8305 0.1608 0.0000
vt 0.8474 0.0226 0.0000
vt 0.9091 0.0225 0.0000
vt 0.9908 0.4869 0.0000
vt 0.9820 0.4869 0.0000
vt 0.9723 0.0225 0.0000
vt 0.9194 0.0226 0.0000
vt 0.6814 0.0155 0.0000
vt 0.8305 0.0155 0.0000
vt 0.8261 0.0155 0.0000
vt 0.2585 0.2618 0.0000
vt 0.3589 0.2618 0.0000
vt 0.3589 0.4468 0.0000
vt 0.2585 0.4468 0.0000
vt 0.5493 0.5131 0.0000
vt 0.4568 0.4999 0.0000
vt 0.6418 0.4999 0.0000
vt 0.3684 0.6617 0.0000
vt 0.4212 0.6441 0.0000
vt 0.4172 0.1608 0.0000
vt 0.4172 0.3546 0.0000
vt 0.8477 0.5070 0.0000
vt 0.9093 0.5069 0.0000
vt 0.9911 0.9712 0.0000
vt 0.9823 0.9712 0.0000
vt 0.9724 0.5069 0.0000
vt 0.9196 0.5069 0.0000
vt 0.7028 0.4999 0.0000
vt 0.6896 0.4999 0.0000
vt 0.6896 0.3546 0.0000
vt 0.7028 0.3546 0.0000
vt 0.4568 0.4030 0.0000
vt 0.6418 0.4030 0.0000
vt 0.2321 0.2618 0.0000
vt 0.2321 0.4468 0.0000
vt 0.2654 0.2363 0.0000
vt 0.2654 0.4722 0.0000
vt 0.4172 0.0155 0.0000
vt 0.8305 0.4999 0.0000
vt 0.8261 0.4999 0.0000
vt 0.7028 0.0155 0.0000
vt 0.7028 0.0023 0.0000
vt 0.8261 0.0023 0.0000
vt 0.3682 0.5209 0.0000
vt 0.4211 0.5208 0.0000
vt 0.3683 0.6442 0.0000
vt 0.6896 0.1608 0.0000
vt 0.7028 0.1608 0.0000
vt 0.6896 0.0155 0.0000
vt 0.7028 0.5131 0.0000
vt 0.8261 0.5131 0.0000
vt 0.0694 0.1929 0.0000
vt 0.2073 0.1929 0.0000
vt 0.2073 0.3162 0.0000
vt 0.0694 0.3162 0.0000
vt 0.1391 0.5411 0.0000
vt 0.1919 0.5411 0.0000
vt 0.3395 0.1806 0.0000
vt 0.2016 0.1806 0.0000
vt 0.2016 0.0573 0.0000
vt 0.3395 0.0573 0.0000
vt 0.3408 0.0155 0.0000
vt 0.3813 0.0573 0.0000
vt 0.3813 0.1806 0.0000
vt 0.3408 0.2223 0.0000
vt 0.0681 0.3579 0.0000
vt 0.0276 0.3162 0.0000
vt 0.0276 0.1929 0.0000
vt 0.0681 0.1511 0.0000
vt 0.6682 0.5131 0.0000
vt 0.4303 0.5131 0.0000
vt 0.5493 0.0023 0.0000
vt 0.6682 0.0023 0.0000
vt 0.4303 0.0023 0.0000
vt 0.6814 0.4999 0.0000
vt 0.4172 0.4999 0.0000
vt 0.9194 0.0023 0.0000
vt 0.9723 0.0023 0.0000
vt 0.9723 0.0124 0.0000
vt 0.9194 0.0124 0.0000
vt 0.6935 0.0062 0.0000
vt 0.2007 0.9299 0.0000
vt 0.1391 0.9299 0.0000
vt 0.2007 0.9400 0.0000
vt 0.1391 0.9400 0.0000
vt 0.6775 0.5093 0.0000
vt 0.8474 0.0125 0.0000
vt 0.9091 0.0124 0.0000
vt 0.8474 0.0023 0.0000
vt 0.9090 0.0023 0.0000
vt 0.6775 0.0062 0.0000
vt 0.1391 0.5208 0.0000
vt 0.1919 0.5208 0.0000
vt 0.1919 0.5309 0.0000
vt 0.1391 0.5309 0.0000
vt 0.6935 0.5093 0.0000
vt 0.9911 0.9814 0.0000
vt 0.9823 0.9814 0.0000
vt 0.9911 0.9914 0.0000
vt 0.9823 0.9914 0.0000
vt 0.4211 0.5093 0.0000
vt 0.8436 0.5131 0.0000
vt 0.8344 0.5093 0.0000
vt 0.9820 0.4667 0.0000
vt 0.9908 0.4667 0.0000
vt 0.9908 0.4767 0.0000
vt 0.9820 0.4767 0.0000
vt 0.4211 0.0062 0.0000
vt 0.8436 0.0023 0.0000
vt 0.8344 0.0062 0.0000
vt 0.2007 0.6819 0.0000
vt 0.3595 0.6617 0.0000
vt 0.0314 0.0086 0.0000
vt 0.0150 0.0023 0.0000
vt 0.1339 0.0023 0.0000
vt 0.1400 0.0086 0.0000
vt 0.1400 0.5010 0.0000
vt 0.2646 0.5010 0.0000
vt 0.2704 0.5131 0.0000
vt 0.1339 0.5131 0.0000
vt 0.4069 0.1608 0.0000
vt 0.4069 0.3546 0.0000
vt 0.3893 0.3482 0.0000
vt 0.3893 0.1614 0.0000
vt 0.0017 0.3546 0.0000
vt 0.0017 0.1608 0.0000
vt 0.0194 0.1614 0.0000
vt 0.0194 0.3482 0.0000
vt 0.0017 0.0155 0.0000
vt 0.0194 0.0213 0.0000
vt 0.4069 0.4999 0.0000
vt 0.3893 0.4882 0.0000
vt 0.2646 0.0086 0.0000
vt 0.2704 0.0023 0.0000
vt 0.0314 0.5010 0.0000
vt 0.0150 0.5131 0.0000
vt 0.0194 0.4882 0.0000
vt 0.0017 0.4999 0.0000
vt 0.3893 0.0213 0.0000
vt 0.4069 0.0155 0.0000
vt 0.3772 0.5010 0.0000
vt 0.3937 0.5131 0.0000
vt 0.3772 0.0086 0.0000
vt 0.3937 0.0023 0.0000
vt 0.3857 0.0123 0.0000
vt 0.4030 0.0062 0.0000
vt 0.0229 0.4972 0.0000
vt 0.0056 0.5093 0.0000
vt 0.0056 0.0062 0.0000
vt 0.0229 0.0123 0.0000
vt 0.4030 0.5093 0.0000
vt 0.3857 0.4972 0.0000
vt 0.6793 0.9952 0.0000
vt 0.6793 0.8476 0.0000
vt 0.7878 0.9952 0.0000
vt 0.7964 0.9916 0.0000
vt 0.7999 0.9829 0.0000
vt 0.7999 0.8476 0.0000
vt 0.6793 0.6672 0.0000
vt 0.7999 0.6672 0.0000
vt 0.7999 0.5320 0.0000
vt 0.7878 0.5197 0.0000
vt 0.7964 0.5233 0.0000
vt 0.6793 0.5197 0.0000
vt 0.5546 0.5197 0.0000
vt 0.5546 0.6672 0.0000
vt 0.4421 0.5197 0.0000
vt 0.4335 0.5233 0.0000
vt 0.4300 0.6672 0.0000
vt 0.4300 0.5320 0.0000
vt 0.5546 0.8476 0.0000
vt 0.4300 0.8476 0.0000
vt 0.4300 0.9829 0.0000
vt 0.4421 0.9952 0.0000
vt 0.4335 0.9916 0.0000
vt 0.5546 0.9952 0.0000
vt 0.8112 0.8666 0.0000
vt 0.8112 0.7581 0.0000
vt 0.8237 0.7581 0.0000
vt 0.8237 0.8666 0.0000
vt 0.9368 0.5334 0.0000
vt 0.9378 0.5241 0.0000
vt 0.9503 0.5241 0.0000
vt 0.9503 0.5334 0.0000
vt 0.9345 0.5428 0.0000
vt 0.9503 0.5428 0.0000
vt 0.9506 0.6781 0.0000
vt 0.8985 0.6781 0.0000
vt 0.9508 0.8585 0.0000
vt 0.8504 0.8586 0.0000
vt 0.9511 0.9937 0.0000
vt 0.8144 0.9940 0.0000
vt 0.3485 0.9748 0.0000
vt 0.3476 0.9841 0.0000
vt 0.2086 0.9839 0.0000
vt 0.2086 0.9746 0.0000
vt 0.3452 0.9934 0.0000
vt 0.2085 0.9933 0.0000
vt 0.3487 0.8662 0.0000
vt 0.2087 0.8661 0.0000
vt 0.3488 0.7416 0.0000
vt 0.2088 0.7414 0.0000
vt 0.3489 0.6290 0.0000
vt 0.2090 0.6289 0.0000
vt 0.3480 0.6198 0.0000
vt 0.2090 0.6196 0.0000
vt 0.1076 0.8568 0.0000
vt 0.1440 0.9921 0.0000
vt 0.0073 0.9922 0.0000
vt 0.0072 0.8569 0.0000
vt 0.3457 0.6104 0.0000
vt 0.2090 0.6102 0.0000
vt 0.0592 0.6764 0.0000
vt 0.0071 0.6765 0.0000
vt 0.0228 0.5412 0.0000
vt 0.0070 0.5412 0.0000
vt 0.0195 0.5225 0.0000
vt 0.0205 0.5318 0.0000
vt 0.0070 0.5318 0.0000
vt 0.0070 0.5225 0.0000
vt 0.8112 0.6334 0.0000
vt 0.8113 0.5208 0.0000
vt 0.8238 0.5208 0.0000
vt 0.8238 0.6334 0.0000
vt 0.1130 0.3502 0.0000
vt 0.1283 0.3353 0.0000
vt 0.1292 0.5000 0.0000
vt 0.1142 0.5000 0.0000
vt 0.0463 0.3090 0.0000
vt 0.0215 0.1515 0.0000
vt 0.0502 0.1364 0.0000
vt 0.0795 0.3210 0.0000
vt 0.0452 0.3359 0.0000
vt 0.0770 0.3469 0.0000
vt 0.1213 0.1575 0.0000
vt 0.1787 0.1872 0.0000
vt 0.1805 0.3250 0.0000
vt 0.1802 0.5000 0.0000
vt 0.1932 0.0390 0.0000
vt 0.1950 0.0049 0.0000
vt 0.2865 0.0061 0.0000
vt 0.2876 0.0401 0.0000
vt 0.1967 0.1188 0.0000
vt 0.2824 0.1195 0.0000
vt 0.6396 0.3500 0.0000
vt 0.6396 0.5000 0.0000
vt 0.5047 0.5000 0.0000
vt 0.5047 0.3500 0.0000
vt 0.6387 0.2804 0.0000
vt 0.6405 0.3123 0.0000
vt 0.5038 0.3123 0.0000
vt 0.5057 0.2804 0.0000
vt 0.1450 0.0412 0.0000
vt 0.1475 0.0057 0.0000
vt 0.1525 0.1206 0.0000
vt 0.3484 0.5000 0.0000
vt 0.3495 0.3355 0.0000
vt 0.3648 0.3504 0.0000
vt 0.3635 0.5000 0.0000
vt 0.4280 0.1372 0.0000
vt 0.4566 0.1523 0.0000
vt 0.4314 0.3095 0.0000
vt 0.3982 0.3213 0.0000
vt 0.4322 0.3356 0.0000
vt 0.4011 0.3473 0.0000
vt 0.3569 0.1581 0.0000
vt 0.2974 0.3251 0.0000
vt 0.2995 0.1875 0.0000
vt 0.2975 0.5000 0.0000
vt 0.3338 0.0079 0.0000
vt 0.3355 0.0432 0.0000
vt 0.3264 0.1220 0.0000
vt 0.6153 0.1003 0.0000
vt 0.6583 0.1055 0.0000
vt 0.5722 0.1882 0.0000
vt 0.6583 0.2648 0.0000
vt 0.5291 0.1003 0.0000
vt 0.4860 0.2648 0.0000
vt 0.4860 0.1055 0.0000
vt 0.2392 0.1851 0.0000
vt 0.1283 0.6647 0.0000
vt 0.1130 0.6498 0.0000
vt 0.0502 0.8636 0.0000
vt 0.0215 0.8485 0.0000
vt 0.0463 0.6910 0.0000
vt 0.0796 0.6790 0.0000
vt 0.0452 0.6641 0.0000
vt 0.0770 0.6531 0.0000
vt 0.1213 0.8425 0.0000
vt 0.1805 0.6750 0.0000
vt 0.1787 0.8128 0.0000
vt 0.2876 0.9598 0.0000
vt 0.2865 0.9939 0.0000
vt 0.1950 0.9951 0.0000
vt 0.1932 0.9610 0.0000
vt 0.2824 0.8804 0.0000
vt 0.1967 0.8812 0.0000
vt 0.5047 0.6500 0.0000
vt 0.6396 0.6500 0.0000
vt 0.5057 0.7196 0.0000
vt 0.5038 0.6877 0.0000
vt 0.6405 0.6877 0.0000
vt 0.6387 0.7196 0.0000
vt 0.1450 0.9588 0.0000
vt 0.1475 0.9943 0.0000
vt 0.1525 0.8794 0.0000
vt 0.3648 0.6495 0.0000
vt 0.3495 0.6645 0.0000
vt 0.4314 0.6905 0.0000
vt 0.4566 0.8476 0.0000
vt 0.4280 0.8628 0.0000
vt 0.3982 0.6786 0.0000
vt 0.4011 0.6527 0.0000
vt 0.4322 0.6643 0.0000
vt 0.3569 0.8419 0.0000
vt 0.2995 0.8124 0.0000
vt 0.2974 0.6749 0.0000
vt 0.3355 0.9567 0.0000
vt 0.3338 0.9920 0.0000
vt 0.3264 0.8780 0.0000
vt 0.5722 0.8118 0.0000
vt 0.6583 0.8945 0.0000
vt 0.6153 0.8997 0.0000
vt 0.6583 0.7352 0.0000
vt 0.5291 0.8997 0.0000
vt 0.4860 0.8945 0.0000
vt 0.4860 0.7352 0.0000
vt 0.2392 0.8149 0.0000
vt 0.2389 0.5000 0.0000
vt 0.2389 0.3256 0.0000
vt 0.2389 0.6744 0.0000
vt 0.8611 0.0691 0.0000
vt 0.8699 0.0721 0.0000
vt 0.8589 0.1068 0.0000
vt 0.8488 0.1039 0.0000
vt 0.8802 0.0764 0.0000
vt 0.8717 0.1098 0.0000
vt 0.8899 0.0792 0.0000
vt 0.8863 0.1126 0.0000
vt 0.8988 0.0801 0.0000
vt 0.9000 0.1146 0.0000
vt 0.9061 0.0793 0.0000
vt 0.9106 0.1152 0.0000
vt 0.9121 0.0766 0.0000
vt 0.9184 0.1147 0.0000
vt 0.8450 0.0594 0.0000
vt 0.8531 0.0614 0.0000
vt 0.8411 0.1015 0.0000
vt 0.8353 0.0992 0.0000
vt 0.8513 0.1367 0.0000
vt 0.8417 0.1341 0.0000
vt 0.8653 0.1393 0.0000
vt 0.8833 0.1419 0.0000
vt 0.9006 0.1437 0.0000
vt 0.9130 0.1439 0.0000
vt 0.9209 0.1428 0.0000
vt 0.8349 0.1313 0.0000
vt 0.8296 0.1286 0.0000
vt 0.8475 0.1632 0.0000
vt 0.8382 0.1608 0.0000
vt 0.8613 0.1657 0.0000
vt 0.8806 0.1683 0.0000
vt 0.9006 0.1704 0.0000
vt 0.9145 0.1701 0.0000
vt 0.9224 0.1678 0.0000
vt 0.8314 0.1584 0.0000
vt 0.8261 0.1554 0.0000
vt 0.8452 0.1907 0.0000
vt 0.8362 0.1882 0.0000
vt 0.8586 0.1927 0.0000
vt 0.8784 0.1943 0.0000
vt 0.9005 0.1955 0.0000
vt 0.9160 0.1940 0.0000
vt 0.9246 0.1901 0.0000
vt 0.8294 0.1852 0.0000
vt 0.8236 0.1812 0.0000
vt 0.8442 0.2200 0.0000
vt 0.8344 0.2178 0.0000
vt 0.8587 0.2216 0.0000
vt 0.8792 0.2229 0.0000
vt 0.9016 0.2236 0.0000
vt 0.9175 0.2217 0.0000
vt 0.9267 0.2175 0.0000
vt 0.8271 0.2146 0.0000
vt 0.8209 0.2102 0.0000
vt 0.8437 0.2536 0.0000
vt 0.8329 0.2512 0.0000
vt 0.8593 0.2551 0.0000
vt 0.8805 0.2561 0.0000
vt 0.9027 0.2563 0.0000
vt 0.9186 0.2540 0.0000
vt 0.9284 0.2498 0.0000
vt 0.8250 0.2480 0.0000
vt 0.8181 0.2436 0.0000
vt 0.8429 0.2902 0.0000
vt 0.8312 0.2881 0.0000
vt 0.8596 0.2921 0.0000
vt 0.8814 0.2933 0.0000
vt 0.9031 0.2932 0.0000
vt 0.9188 0.2911 0.0000
vt 0.9293 0.2875 0.0000
vt 0.8224 0.2853 0.0000
vt 0.8146 0.2816 0.0000
vt 0.8422 0.3261 0.0000
vt 0.8296 0.3230 0.0000
vt 0.8592 0.3286 0.0000
vt 0.8804 0.3297 0.0000
vt 0.9017 0.3286 0.0000
vt 0.9181 0.3259 0.0000
vt 0.9299 0.3225 0.0000
vt 0.8197 0.3198 0.0000
vt 0.8107 0.3162 0.0000
vt 0.8422 0.3712 0.0000
vt 0.8281 0.3683 0.0000
vt 0.8601 0.3737 0.0000
vt 0.8805 0.3754 0.0000
vt 0.8998 0.3755 0.0000
vt 0.9157 0.3735 0.0000
vt 0.9289 0.3707 0.0000
vt 0.8166 0.3651 0.0000
vt 0.8057 0.3618 0.0000
vt 0.8420 0.4168 0.0000
vt 0.8262 0.4147 0.0000
vt 0.8603 0.4190 0.0000
vt 0.8798 0.4208 0.0000
vt 0.8980 0.4215 0.0000
vt 0.9135 0.4209 0.0000
vt 0.9275 0.4194 0.0000
vt 0.8125 0.4123 0.0000
vt 0.7996 0.4096 0.0000
vt 0.8393 0.4642 0.0000
vt 0.8219 0.4616 0.0000
vt 0.8584 0.4658 0.0000
vt 0.8781 0.4659 0.0000
vt 0.8963 0.4651 0.0000
vt 0.9123 0.4641 0.0000
vt 0.9274 0.4634 0.0000
vt 0.8068 0.4581 0.0000
vt 0.7925 0.4546 0.0000
vt 0.8374 0.5100 0.0000
vt 0.8204 0.5075 0.0000
vt 0.8553 0.5116 0.0000
vt 0.8735 0.5121 0.0000
vt 0.8913 0.5118 0.0000
vt 0.9085 0.5110 0.0000
vt 0.9256 0.5107 0.0000
vt 0.8042 0.5044 0.0000
vt 0.7879 0.5014 0.0000
vt 0.8348 0.5583 0.0000
vt 0.8182 0.5569 0.0000
vt 0.8515 0.5597 0.0000
vt 0.8688 0.5611 0.0000
vt 0.8866 0.5623 0.0000
vt 0.9048 0.5630 0.0000
vt 0.9228 0.5634 0.0000
vt 0.8015 0.5553 0.0000
vt 0.7841 0.5537 0.0000
vt 0.8310 0.6110 0.0000
vt 0.8146 0.6097 0.0000
vt 0.8476 0.6122 0.0000
vt 0.8648 0.6134 0.0000
vt 0.8828 0.6146 0.0000
vt 0.9011 0.6154 0.0000
vt 0.9192 0.6161 0.0000
vt 0.7981 0.6081 0.0000
vt 0.7809 0.6063 0.0000
vt 0.8275 0.6622 0.0000
vt 0.8113 0.6606 0.0000
vt 0.8439 0.6634 0.0000
vt 0.8610 0.6645 0.0000
vt 0.8788 0.6658 0.0000
vt 0.8969 0.6667 0.0000
vt 0.9148 0.6677 0.0000
vt 0.7948 0.6593 0.0000
vt 0.7778 0.6575 0.0000
vt 0.8242 0.7080 0.0000
vt 0.8086 0.7064 0.0000
vt 0.8401 0.7093 0.0000
vt 0.8568 0.7106 0.0000
vt 0.8744 0.7117 0.0000
vt 0.8925 0.7133 0.0000
vt 0.9102 0.7145 0.0000
vt 0.7926 0.7054 0.0000
vt 0.7759 0.7039 0.0000
vt 0.8216 0.7434 0.0000
vt 0.8070 0.7421 0.0000
vt 0.8367 0.7446 0.0000
vt 0.8529 0.7460 0.0000
vt 0.8705 0.7473 0.0000
vt 0.8888 0.7490 0.0000
vt 0.9064 0.7502 0.0000
vt 0.7918 0.7413 0.0000
vt 0.7753 0.7403 0.0000
vt 0.8197 0.7746 0.0000
vt 0.8057 0.7734 0.0000
vt 0.8342 0.7756 0.0000
vt 0.8499 0.7768 0.0000
vt 0.8672 0.7783 0.0000
vt 0.8853 0.7796 0.0000
vt 0.9027 0.7808 0.0000
vt 0.7911 0.7729 0.0000
vt 0.7752 0.7721 0.0000
vt 0.8180 0.8107 0.0000
vt 0.8042 0.8100 0.0000
vt 0.8322 0.8118 0.0000
vt 0.8475 0.8126 0.0000
vt 0.8641 0.8134 0.0000
vt 0.8814 0.8152 0.0000
vt 0.8982 0.8170 0.0000
vt 0.7900 0.8092 0.0000
vt 0.7746 0.8082 0.0000
vt 0.8164 0.8452 0.0000
vt 0.8032 0.8442 0.0000
vt 0.8300 0.8461 0.0000
vt 0.8445 0.8474 0.0000
vt 0.8604 0.8487 0.0000
vt 0.8770 0.8508 0.0000
vt 0.8933 0.8528 0.0000
vt 0.7895 0.8439 0.0000
vt 0.7746 0.8436 0.0000
vt 0.8153 0.8803 0.0000
vt 0.8025 0.8800 0.0000
vt 0.8283 0.8805 0.0000
vt 0.8421 0.8810 0.0000
vt 0.8568 0.8823 0.0000
vt 0.8722 0.8848 0.0000
vt 0.8874 0.8877 0.0000
vt 0.7892 0.8793 0.0000
vt 0.7747 0.8789 0.0000
vt 0.8152 0.9093 0.0000
vt 0.8031 0.9094 0.0000
vt 0.8272 0.9094 0.0000
vt 0.8395 0.9102 0.0000
vt 0.8524 0.9120 0.0000
vt 0.8660 0.9150 0.0000
vt 0.8800 0.9190 0.0000
vt 0.7902 0.9100 0.0000
vt 0.7761 0.9106 0.0000
vt 0.8169 0.9348 0.0000
vt 0.8056 0.9362 0.0000
vt 0.8273 0.9334 0.0000
vt 0.8376 0.9329 0.0000
vt 0.8481 0.9341 0.0000
vt 0.8590 0.9380 0.0000
vt 0.8706 0.9443 0.0000
vt 0.7928 0.9373 0.0000
vt 0.7788 0.9378 0.0000
vt 0.8206 0.9563 0.0000
vt 0.8062 0.9516 0.0000
vt 0.8298 0.9506 0.0000
vt 0.8374 0.9471 0.0000
vt 0.8462 0.9461 0.0000
vt 0.8556 0.9499 0.0000
vt 0.8624 0.9576 0.0000
vt 0.7939 0.9502 0.0000
vt 0.7802 0.9533 0.0000
vt 0.8674 0.0499 0.0000
vt 0.8733 0.0527 0.0000
vt 0.8821 0.0544 0.0000
vt 0.8895 0.0541 0.0000
vt 0.9022 0.0544 0.0000
vt 0.9079 0.0532 0.0000
vt 0.9099 0.0508 0.0000
vt 0.8530 0.0404 0.0000
vt 0.8574 0.0434 0.0000
vt 0.8737 0.0396 0.0000
vt 0.8786 0.0408 0.0000
vt 0.8852 0.0416 0.0000
vt 0.8903 0.0425 0.0000
vt 0.9025 0.0449 0.0000
vt 0.9073 0.0460 0.0000
vt 0.9112 0.0478 0.0000
vt 0.8575 0.0345 0.0000
vt 0.8616 0.0359 0.0000
vt 0.8804 0.0241 0.0000
vt 0.8849 0.0251 0.0000
vt 0.8908 0.0258 0.0000
vt 0.8953 0.0268 0.0000
vt 0.9061 0.0299 0.0000
vt 0.9106 0.0316 0.0000
vt 0.9147 0.0339 0.0000
vt 0.8644 0.0205 0.0000
vt 0.8687 0.0213 0.0000
vt 0.8872 0.0066 0.0000
vt 0.8917 0.0077 0.0000
vt 0.8975 0.0087 0.0000
vt 0.9019 0.0098 0.0000
vt 0.9116 0.0132 0.0000
vt 0.9156 0.0148 0.0000
vt 0.9193 0.0168 0.0000
vt 0.8723 0.0034 0.0000
vt 0.8763 0.0040 0.0000
vt 0.8191 0.9669 0.0000
vt 0.8058 0.9692 0.0000
vt 0.8261 0.9661 0.0000
vt 0.8328 0.9661 0.0000
vt 0.8388 0.9671 0.0000
vt 0.8501 0.9717 0.0000
vt 0.8527 0.9734 0.0000
vt 0.8021 0.9696 0.0000
vt 0.7978 0.9701 0.0000
vt 0.8219 0.9940 0.0000
vt 0.8093 0.9954 0.0000
vt 0.8258 0.9936 0.0000
vt 0.8294 0.9935 0.0000
vt 0.8326 0.9935 0.0000
vt 0.8442 0.9959 0.0000
vt 0.8475 0.9966 0.0000
vt 0.8058 0.9958 0.0000
vt 0.8015 0.9964 0.0000
# 640 texture coords

o Phone_obj
g Phone_obj
s 1
f 1/1/1 2/2/2 3/3/3 
f 1/1/1 3/3/3 4/4/4 
f 5/5/5 6/6/6 7/7/7 
f 5/5/5 7/7/7 8/8/8 
f 9/9/9 10/10/10 11/11/11 
f 12/12/12 13/13/13 14/14/14 
f 12/12/12 14/14/14 15/15/15 
f 16/16/16 17/17/16 18/18/17 
f 16/16/16 18/18/17 19/19/18 
f 20/20/16 21/21/19 22/22/19 
f 20/20/16 22/22/19 23/23/20 
f 12/24/12 24/25/21 25/26/21 
f 12/24/12 25/26/21 13/27/13 
f 17/28/16 26/29/22 27/30/23 
f 17/28/16 27/30/23 18/31/17 
f 13/13/13 28/32/24 29/33/25 
f 13/13/13 29/33/25 14/14/14 
f 30/34/26 19/19/18 18/18/17 
f 30/34/26 18/18/17 31/35/27 
f 32/36/28 23/23/20 22/22/19 
f 32/36/28 22/22/19 33/37/29 
f 28/38/24 13/27/13 25/26/21 
f 31/39/27 18/31/17 27/30/23 
f 31/39/27 27/30/23 34/40/30 
f 35/41/31 36/42/32 37/43/33 
f 35/41/31 37/43/33 38/44/34 
f 2/45/2 39/46/35 40/47/36 
f 5/5/5 41/48/37 42/49/38 
f 1/1/1 9/9/9 11/11/11 
f 19/50/18 25/26/21 24/25/21 
f 19/50/18 24/25/21 16/51/16 
f 43/52/39 12/12/12 15/15/15 
f 43/52/39 15/15/15 44/53/40 
f 17/17/16 16/16/16 45/54/41 
f 17/17/16 45/54/41 46/55/42 
f 47/56/43 48/57/44 21/21/19 
f 47/56/43 21/21/19 20/20/16 
f 49/58/45 47/59/43 20/60/16 
f 49/58/45 20/60/16 50/61/46 
f 36/62/32 24/25/21 37/63/33 
f 16/51/16 24/25/21 36/62/32 
f 39/64/35 35/41/31 38/44/34 
f 39/64/35 38/44/34 40/65/36 
f 35/41/31 39/66/35 36/42/32 
f 37/43/33 40/67/36 38/44/34 
f 19/50/18 30/68/26 25/26/21 
f 12/24/12 37/63/33 24/25/21 
f 26/29/22 17/28/16 46/69/42 
f 26/29/22 46/69/42 51/70/47 
f 52/71/48 53/72/49 54/73/50 
f 52/71/48 54/73/50 34/40/30 
f 53/74/49 55/75/51 42/49/38 
f 53/74/49 42/49/38 54/76/50 
f 50/61/46 20/60/16 23/77/20 
f 50/61/46 23/77/20 56/78/52 
f 56/78/52 23/77/20 32/79/28 
f 56/78/52 32/79/28 52/71/48 
f 57/80/53 49/58/45 51/70/47 
f 57/80/53 51/70/47 10/81/10 
f 58/82/54 50/83/46 26/84/22 
f 58/82/54 26/84/22 59/85/55 
f 10/10/10 9/9/9 60/86/56 
f 10/10/10 60/86/56 57/87/53 
f 27/30/23 26/29/22 50/61/46 
f 27/30/23 50/61/46 56/78/52 
f 61/88/57 27/89/23 56/90/52 
f 61/88/57 56/90/52 62/91/58 
f 42/49/38 41/48/37 54/76/50 
f 56/90/52 52/92/48 62/91/58 
f 62/91/58 52/93/48 34/94/30 
f 62/91/58 34/94/30 61/88/57 
f 34/95/30 27/89/23 61/88/57 
f 51/96/47 59/85/55 26/84/22 
f 59/85/55 51/97/47 49/98/45 
f 59/85/55 49/98/45 58/82/54 
f 58/82/54 49/99/45 50/83/46 
f 46/69/42 10/81/10 51/70/47 
f 54/73/50 31/39/27 34/40/30 
f 40/47/36 3/100/3 2/45/2 
f 39/46/35 2/45/2 63/101/59 
f 25/26/21 8/102/8 7/103/7 
f 64/104/60 8/102/8 25/26/21 
f 37/63/33 12/24/12 43/105/39 
f 37/63/33 43/105/39 40/47/36 
f 45/106/41 16/51/16 36/62/32 
f 36/62/32 39/46/35 45/106/41 
f 55/107/51 53/108/49 65/109/61 
f 55/107/51 65/109/61 66/110/62 
f 66/110/62 65/109/61 32/36/28 
f 66/110/62 32/36/28 33/37/29 
f 32/79/28 65/111/61 52/71/48 
f 65/111/61 53/72/49 52/71/48 
f 4/4/4 3/3/3 67/112/63 
f 4/4/4 67/112/63 68/113/64 
f 68/113/64 67/112/63 43/114/39 
f 68/113/64 43/114/39 44/115/40 
f 43/105/39 67/116/63 40/47/36 
f 67/116/63 3/100/3 40/47/36 
f 29/33/25 28/32/24 69/117/65 
f 29/33/25 69/117/65 70/118/66 
f 70/118/66 69/117/65 7/119/7 
f 70/118/66 7/119/7 6/120/6 
f 7/103/7 69/121/65 25/26/21 
f 69/121/65 28/38/24 25/26/21 
f 48/122/44 47/123/43 71/124/67 
f 48/122/44 71/124/67 72/125/68 
f 72/125/68 71/124/67 57/87/53 
f 72/125/68 57/87/53 60/86/56 
f 57/80/53 71/126/67 49/58/45 
f 71/126/67 47/59/43 49/58/45 
f 46/55/42 45/54/41 73/127/69 
f 46/55/42 73/127/69 74/128/70 
f 74/128/70 73/127/69 63/129/59 
f 74/128/70 63/129/59 11/130/11 
f 63/101/59 73/131/69 39/46/35 
f 73/131/69 45/106/41 39/46/35 
f 11/132/11 10/81/10 74/133/70 
f 10/81/10 46/69/42 74/133/70 
f 41/134/37 64/135/60 75/136/71 
f 41/134/37 75/136/71 76/137/72 
f 76/137/72 75/136/71 30/34/26 
f 76/137/72 30/34/26 31/35/27 
f 30/68/26 75/138/71 25/26/21 
f 75/138/71 64/104/60 25/26/21 
f 54/73/50 41/139/37 76/140/72 
f 31/39/27 54/73/50 76/140/72 
f 11/11/11 63/141/59 2/2/2 
f 2/2/2 1/1/1 11/11/11 
f 8/8/8 64/142/60 41/48/37 
f 8/8/8 41/48/37 5/5/5 
f 77/143/73 6/144/6 5/145/5 
f 5/145/5 78/146/74 77/143/73 
f 79/147/75 80/148/76 9/149/9 
f 79/147/75 9/149/9 1/150/1 
f 22/151/19 21/152/19 81/153/19 
f 22/151/19 81/153/19 82/154/77 
f 15/155/15 14/156/14 83/157/14 
f 15/155/15 83/157/14 84/158/78 
f 14/156/14 29/159/25 85/160/79 
f 14/156/14 85/160/79 83/157/14 
f 21/152/19 48/161/44 86/162/80 
f 21/152/19 86/162/80 81/153/19 
f 87/163/81 78/146/74 5/145/5 
f 87/163/81 5/145/5 42/164/38 
f 88/165/82 79/147/75 1/150/1 
f 88/165/82 1/150/1 4/166/4 
f 89/167/83 44/168/40 15/155/15 
f 15/155/15 84/158/78 89/167/83 
f 22/151/19 82/154/77 90/169/84 
f 90/169/84 33/170/29 22/151/19 
f 9/149/9 80/148/76 91/171/85 
f 91/171/85 60/172/56 9/149/9 
f 92/173/86 87/163/81 42/164/38 
f 92/173/86 42/164/38 55/174/51 
f 93/175/87 92/173/86 55/174/51 
f 93/175/87 55/174/51 66/176/62 
f 90/169/84 93/175/87 66/176/62 
f 90/169/84 66/176/62 33/170/29 
f 94/177/88 88/165/82 4/166/4 
f 94/177/88 4/166/4 68/178/64 
f 89/167/83 94/177/88 68/178/64 
f 89/167/83 68/178/64 44/168/40 
f 85/160/79 29/159/25 70/179/66 
f 70/179/66 95/180/89 85/160/79 
f 95/180/89 70/179/66 6/144/6 
f 6/144/6 77/143/73 95/180/89 
f 86/162/80 48/161/44 72/181/68 
f 72/181/68 96/182/90 86/162/80 
f 96/182/90 72/181/68 60/172/56 
f 60/172/56 91/171/85 96/182/90 
f 97/183/91 98/184/92 99/185/93 
f 98/184/92 100/186/94 99/185/93 
f 98/184/92 101/187/95 100/186/94 
f 102/188/96 101/187/95 98/184/92 
f 102/188/96 98/184/92 103/189/92 
f 102/188/96 103/189/92 104/190/97 
f 105/191/98 104/190/97 103/189/92 
f 103/189/92 106/192/99 107/193/100 
f 103/189/92 107/193/100 105/191/98 
f 103/189/92 108/194/101 106/192/99 
f 109/195/102 108/194/101 103/189/92 
f 109/195/102 103/189/92 110/196/92 
f 109/195/102 110/196/92 111/197/103 
f 110/196/92 112/198/104 111/197/103 
f 110/196/92 113/199/105 114/200/106 
f 110/196/92 114/200/106 112/198/104 
f 113/199/105 110/196/92 115/201/92 
f 113/199/105 115/201/92 116/202/107 
f 117/203/108 116/202/107 115/201/92 
f 115/201/92 118/204/109 119/205/110 
f 115/201/92 119/205/110 117/203/108 
f 115/201/92 120/206/111 118/204/109 
f 120/206/111 115/201/92 98/184/92 
f 120/206/111 98/184/92 97/183/91 
f 103/189/92 98/184/92 115/201/92 
f 103/189/92 115/201/92 110/196/92 
f 77/207/73 78/208/74 97/209/91 
f 77/207/73 97/209/91 99/210/93 
f 95/211/89 77/212/73 99/213/93 
f 95/211/89 99/213/93 100/214/94 
f 85/215/79 95/211/89 100/214/94 
f 85/215/79 100/214/94 101/216/95 
f 85/215/79 101/216/95 102/217/96 
f 102/217/96 83/218/14 85/215/79 
f 83/218/14 102/217/96 104/219/97 
f 104/219/97 84/220/78 83/218/14 
f 84/220/78 104/219/97 105/221/98 
f 105/221/98 89/222/83 84/220/78 
f 88/223/82 94/224/88 107/225/100 
f 88/223/82 107/225/100 106/226/99 
f 94/224/88 89/227/83 105/228/98 
f 94/224/88 105/228/98 107/225/100 
f 79/229/75 88/223/82 106/226/99 
f 79/229/75 106/226/99 108/230/101 
f 80/231/76 79/229/75 108/230/101 
f 80/231/76 108/230/101 109/232/102 
f 91/233/85 80/231/76 109/232/102 
f 91/233/85 109/232/102 111/234/103 
f 96/235/90 91/233/85 111/234/103 
f 96/235/90 111/234/103 112/236/104 
f 81/237/19 86/238/80 114/239/106 
f 81/237/19 114/239/106 113/240/105 
f 86/241/80 96/235/90 112/236/104 
f 86/241/80 112/236/104 114/242/106 
f 82/243/77 81/237/19 113/240/105 
f 82/243/77 113/240/105 116/244/107 
f 90/245/84 82/243/77 116/244/107 
f 90/245/84 116/244/107 117/246/108 
f 92/247/86 93/248/87 119/249/110 
f 92/247/86 119/249/110 118/250/109 
f 93/248/87 90/245/84 117/246/108 
f 93/248/87 117/246/108 119/249/110 
f 87/251/81 92/252/86 118/253/109 
f 87/251/81 118/253/109 120/254/111 
f 78/208/74 87/251/81 120/254/111 
f 78/208/74 120/254/111 97/209/91 
f 121/255/112 122/256/113 123/257/114 
f 123/257/114 124/258/115 121/255/112 
f 125/259/116 126/260/117 127/261/118 
f 127/261/118 128/262/119 125/259/116 
f 129/263/120 125/259/116 128/262/119 
f 128/262/119 130/264/121 129/263/120 
f 121/255/112 130/264/121 128/262/119 
f 121/255/112 128/262/119 122/256/113 
f 128/262/119 127/261/118 131/265/122 
f 122/256/113 128/262/119 131/265/122 
f 131/265/122 132/266/123 133/267/124 
f 133/267/124 122/256/113 131/265/122 
f 133/267/124 134/268/125 123/257/114 
f 123/257/114 122/256/113 133/267/124 
f 135/269/126 136/270/127 137/271/128 
f 135/269/126 137/271/128 138/272/129 
f 139/273/130 135/269/126 138/272/129 
f 139/273/130 138/272/129 140/274/131 
f 121/275/112 124/276/115 141/277/132 
f 121/275/112 141/277/132 142/278/133 
f 129/279/120 130/280/121 143/281/134 
f 129/279/120 143/281/134 144/282/135 
f 130/280/121 121/275/112 142/278/133 
f 130/280/121 142/278/133 143/281/134 
f 127/283/118 126/284/117 136/270/127 
f 136/270/127 135/269/126 127/283/118 
f 139/273/130 131/285/122 127/283/118 
f 139/273/130 127/283/118 135/269/126 
f 145/286/136 146/287/137 142/288/133 
f 145/286/136 142/288/133 141/289/132 
f 147/290/138 148/291/139 149/292/140 
f 147/290/138 149/292/140 150/293/141 
f 149/292/140 144/294/135 143/295/134 
f 143/295/134 150/293/141 149/292/140 
f 150/293/141 143/295/134 142/288/133 
f 142/288/133 146/287/137 150/293/141 
f 151/296/142 147/290/138 150/293/141 
f 151/296/142 150/293/141 146/287/137 
f 152/297/143 153/298/144 151/296/142 
f 151/296/142 146/287/137 152/297/143 
f 152/297/143 146/287/137 145/286/136 
f 145/286/136 154/299/145 152/297/143 
f 137/271/128 148/300/139 147/301/138 
f 137/271/128 147/301/138 138/272/129 
f 147/301/138 151/302/142 140/274/131 
f 140/274/131 138/272/129 147/301/138 
f 136/303/127 126/304/117 155/305/146 
f 126/304/117 125/306/116 155/305/146 
f 125/306/116 129/279/120 155/305/146 
f 155/305/146 129/279/120 144/282/135 
f 136/303/127 155/305/146 137/307/128 
f 149/308/140 148/309/139 155/305/146 
f 148/309/139 137/307/128 155/305/146 
f 144/282/135 149/308/140 155/305/146 
f 156/310/147 139/273/130 140/274/131 
f 139/273/130 156/310/147 132/266/123 
f 139/273/130 132/266/123 131/285/122 
f 140/274/131 151/302/142 153/298/144 
f 140/274/131 153/298/144 156/310/147 
f 123/257/114 157/311/148 158/312/149 
f 123/257/114 158/312/149 124/258/115 
f 159/313/150 160/314/151 161/315/152 
f 159/313/150 161/315/152 162/316/153 
f 162/316/153 161/315/152 163/317/154 
f 162/316/153 163/317/154 164/318/155 
f 162/316/153 164/318/155 158/312/149 
f 158/312/149 157/311/148 162/316/153 
f 165/319/156 159/313/150 162/316/153 
f 165/319/156 162/316/153 157/311/148 
f 166/320/157 167/321/158 165/319/156 
f 165/319/156 157/311/148 166/320/157 
f 166/320/157 157/311/148 123/257/114 
f 123/257/114 134/268/125 166/320/157 
f 168/322/159 169/323/160 170/324/161 
f 168/322/159 170/324/161 171/325/162 
f 172/326/163 168/322/159 171/325/162 
f 172/326/163 171/325/162 173/327/164 
f 174/328/165 141/277/132 124/276/115 
f 174/328/165 124/276/115 158/329/149 
f 175/330/166 176/331/167 164/332/155 
f 175/330/166 164/332/155 163/333/154 
f 176/331/167 174/328/165 158/329/149 
f 176/331/167 158/329/149 164/332/155 
f 159/334/150 171/325/162 170/324/161 
f 170/324/161 160/335/151 159/334/150 
f 159/334/150 165/336/156 173/327/164 
f 173/327/164 171/325/162 159/334/150 
f 174/337/165 177/338/168 145/286/136 
f 145/286/136 141/289/132 174/337/165 
f 178/339/169 179/340/170 180/341/171 
f 180/341/171 181/342/172 178/339/169 
f 176/343/167 175/344/166 178/339/169 
f 176/343/167 178/339/169 181/342/172 
f 174/337/165 176/343/167 181/342/172 
f 174/337/165 181/342/172 177/338/168 
f 181/342/172 180/341/171 182/345/173 
f 177/338/168 181/342/172 182/345/173 
f 182/345/173 183/346/174 184/347/175 
f 184/347/175 177/338/168 182/345/173 
f 184/347/175 154/299/145 145/286/136 
f 145/286/136 177/338/168 184/347/175 
f 180/348/171 179/349/170 169/323/160 
f 169/323/160 168/322/159 180/348/171 
f 172/326/163 182/350/173 180/348/171 
f 172/326/163 180/348/171 168/322/159 
f 185/351/176 160/352/151 170/353/161 
f 185/351/176 161/354/152 160/352/151 
f 185/351/176 163/333/154 161/354/152 
f 175/330/166 163/333/154 185/351/176 
f 169/355/160 185/351/176 170/353/161 
f 185/351/176 179/356/170 178/357/169 
f 185/351/176 169/355/160 179/356/170 
f 185/351/176 178/357/169 175/330/166 
f 172/326/163 173/327/164 186/358/177 
f 167/321/158 186/358/177 173/327/164 
f 165/336/156 167/321/158 173/327/164 
f 183/346/174 182/350/173 172/326/163 
f 186/358/177 183/346/174 172/326/163 
f 187/359/21 134/268/125 133/267/124 
f 133/267/124 188/360/178 187/359/21 
f 188/360/178 133/267/124 132/266/123 
f 132/266/123 156/310/147 188/360/178 
f 187/359/21 188/360/178 152/297/143 
f 187/359/21 152/297/143 154/299/145 
f 188/360/178 156/310/147 153/298/144 
f 188/360/178 153/298/144 152/297/143 
f 166/320/157 134/268/125 187/359/21 
f 166/320/157 187/359/21 189/361/179 
f 167/321/158 166/320/157 189/361/179 
f 167/321/158 189/361/179 186/358/177 
f 184/347/175 189/361/179 187/359/21 
f 187/359/21 154/299/145 184/347/175 
f 183/346/174 186/358/177 189/361/179 
f 189/361/179 184/347/175 183/346/174 
f 190/362/180 191/363/181 192/364/182 
f 190/362/180 192/364/182 193/365/183 
f 191/363/181 194/366/184 195/367/185 
f 191/363/181 195/367/185 192/364/182 
f 194/366/184 196/368/186 197/369/187 
f 194/366/184 197/369/187 195/367/185 
f 196/368/186 198/370/188 199/371/189 
f 196/368/186 199/371/189 197/369/187 
f 198/370/188 200/372/190 201/373/191 
f 198/370/188 201/373/191 199/371/189 
f 200/372/190 202/374/192 203/375/193 
f 200/372/190 203/375/193 201/373/191 
f 202/376/192 204/377/194 205/378/195 
f 202/376/192 205/378/195 203/379/193 
f 204/377/194 190/362/180 193/365/183 
f 204/377/194 193/365/183 205/378/195 
f 193/365/183 192/364/182 206/380/196 
f 193/365/183 206/380/196 207/381/197 
f 192/364/182 195/367/185 208/382/198 
f 192/364/182 208/382/198 206/380/196 
f 195/367/185 197/369/187 209/383/199 
f 195/367/185 209/383/199 208/382/198 
f 197/369/187 199/371/189 210/384/200 
f 197/369/187 210/384/200 209/383/199 
f 199/371/189 201/373/191 211/385/201 
f 199/371/189 211/385/201 210/384/200 
f 201/373/191 203/375/193 212/386/202 
f 201/373/191 212/386/202 211/385/201 
f 203/379/193 205/378/195 213/387/203 
f 203/379/193 213/387/203 212/388/202 
f 205/378/195 193/365/183 207/381/197 
f 205/378/195 207/381/197 213/387/203 
f 207/381/197 206/380/196 214/389/204 
f 207/381/197 214/389/204 215/390/205 
f 206/380/196 208/382/198 216/391/206 
f 206/380/196 216/391/206 214/389/204 
f 208/382/198 209/383/199 217/392/207 
f 208/382/198 217/392/207 216/391/206 
f 209/383/199 210/384/200 218/393/208 
f 209/383/199 218/393/208 217/392/207 
f 210/384/200 211/385/201 219/394/209 
f 210/384/200 219/394/209 218/393/208 
f 211/385/201 212/386/202 220/395/210 
f 211/385/201 220/395/210 219/394/209 
f 212/388/202 213/387/203 221/396/211 
f 212/388/202 221/396/211 220/397/210 
f 213/387/203 207/381/197 215/390/205 
f 213/387/203 215/390/205 221/396/211 
f 215/390/205 214/389/204 222/398/212 
f 215/390/205 222/398/212 223/399/213 
f 214/389/204 216/391/206 224/400/214 
f 214/389/204 224/400/214 222/398/212 
f 216/391/206 217/392/207 225/401/215 
f 216/391/206 225/401/215 224/400/214 
f 217/392/207 218/393/208 226/402/216 
f 217/392/207 226/402/216 225/401/215 
f 218/393/208 219/394/209 227/403/217 
f 218/393/208 227/403/217 226/402/216 
f 219/394/209 220/395/210 228/404/218 
f 219/394/209 228/404/218 227/403/217 
f 220/397/210 221/396/211 229/405/219 
f 220/397/210 229/405/219 228/406/218 
f 221/396/211 215/390/205 223/399/213 
f 221/396/211 223/399/213 229/405/219 
f 223/399/213 222/398/212 230/407/220 
f 223/399/213 230/407/220 231/408/221 
f 222/398/212 224/400/214 232/409/222 
f 222/398/212 232/409/222 230/407/220 
f 224/400/214 225/401/215 233/410/223 
f 224/400/214 233/410/223 232/409/222 
f 225/401/215 226/402/216 234/411/224 
f 225/401/215 234/411/224 233/410/223 
f 226/402/216 227/403/217 235/412/225 
f 226/402/216 235/412/225 234/411/224 
f 227/403/217 228/404/218 236/413/226 
f 227/403/217 236/413/226 235/412/225 
f 228/406/218 229/405/219 237/414/227 
f 228/406/218 237/414/227 236/415/226 
f 229/405/219 223/399/213 231/408/221 
f 229/405/219 231/408/221 237/414/227 
f 231/408/221 230/407/220 238/416/228 
f 231/408/221 238/416/228 239/417/229 
f 230/407/220 232/409/222 240/418/230 
f 230/407/220 240/418/230 238/416/228 
f 232/409/222 233/410/223 241/419/231 
f 232/409/222 241/419/231 240/418/230 
f 233/410/223 234/411/224 242/420/232 
f 233/410/223 242/420/232 241/419/231 
f 234/411/224 235/412/225 243/421/233 
f 234/411/224 243/421/233 242/420/232 
f 235/412/225 236/413/226 244/422/234 
f 235/412/225 244/422/234 243/421/233 
f 236/415/226 237/414/227 245/423/235 
f 236/415/226 245/423/235 244/424/234 
f 237/414/227 231/408/221 239/417/229 
f 237/414/227 239/417/229 245/423/235 
f 239/417/229 238/416/228 246/425/236 
f 239/417/229 246/425/236 247/426/237 
f 238/416/228 240/418/230 248/427/238 
f 238/416/228 248/427/238 246/425/236 
f 240/418/230 241/419/231 249/428/239 
f 240/418/230 249/428/239 248/427/238 
f 241/419/231 242/420/232 250/429/240 
f 241/419/231 250/429/240 249/428/239 
f 242/420/232 243/421/233 251/430/241 
f 242/420/232 251/430/241 250/429/240 
f 243/421/233 244/422/234 252/431/242 
f 243/421/233 252/431/242 251/430/241 
f 244/424/234 245/423/235 253/432/243 
f 244/424/234 253/432/243 252/433/242 
f 245/423/235 239/417/229 247/426/237 
f 245/423/235 247/426/237 253/432/243 
f 247/426/237 246/425/236 254/434/244 
f 247/426/237 254/434/244 255/435/245 
f 246/425/236 248/427/238 256/436/246 
f 246/425/236 256/436/246 254/434/244 
f 248/427/238 249/428/239 257/437/247 
f 248/427/238 257/437/247 256/436/246 
f 249/428/239 250/429/240 258/438/248 
f 249/428/239 258/438/248 257/437/247 
f 250/429/240 251/430/241 259/439/249 
f 250/429/240 259/439/249 258/438/248 
f 251/430/241 252/431/242 260/440/250 
f 251/430/241 260/440/250 259/439/249 
f 252/433/242 253/432/243 261/441/251 
f 252/433/242 261/441/251 260/442/250 
f 253/432/243 247/426/237 255/435/245 
f 253/432/243 255/435/245 261/441/251 
f 255/435/245 254/434/244 262/443/252 
f 255/435/245 262/443/252 263/444/253 
f 254/434/244 256/436/246 264/445/254 
f 254/434/244 264/445/254 262/443/252 
f 256/436/246 257/437/247 265/446/255 
f 256/436/246 265/446/255 264/445/254 
f 257/437/247 258/438/248 266/447/256 
f 257/437/247 266/447/256 265/446/255 
f 258/438/248 259/439/249 267/448/257 
f 258/438/248 267/448/257 266/447/256 
f 259/439/249 260/440/250 268/449/258 
f 259/439/249 268/449/258 267/448/257 
f 260/442/250 261/441/251 269/450/259 
f 260/442/250 269/450/259 268/451/258 
f 261/441/251 255/435/245 263/444/253 
f 261/441/251 263/444/253 269/450/259 
f 263/444/253 262/443/252 270/452/260 
f 263/444/253 270/452/260 271/453/261 
f 262/443/252 264/445/254 272/454/262 
f 262/443/252 272/454/262 270/452/260 
f 264/445/254 265/446/255 273/455/263 
f 264/445/254 273/455/263 272/454/262 
f 265/446/255 266/447/256 274/456/264 
f 265/446/255 274/456/264 273/455/263 
f 266/447/256 267/448/257 275/457/265 
f 266/447/256 275/457/265 274/456/264 
f 267/448/257 268/449/258 276/458/266 
f 267/448/257 276/458/266 275/457/265 
f 268/451/258 269/450/259 277/459/267 
f 268/451/258 277/459/267 276/460/266 
f 269/450/259 263/444/253 271/453/261 
f 269/450/259 271/453/261 277/459/267 
f 271/453/261 270/452/260 278/461/268 
f 271/453/261 278/461/268 279/462/269 
f 270/452/260 272/454/262 280/463/270 
f 270/452/260 280/463/270 278/461/268 
f 272/454/262 273/455/263 281/464/271 
f 272/454/262 281/464/271 280/463/270 
f 273/455/263 274/456/264 282/465/272 
f 273/455/263 282/465/272 281/464/271 
f 274/456/264 275/457/265 283/466/273 
f 274/456/264 283/466/273 282/465/272 
f 275/457/265 276/458/266 284/467/274 
f 275/457/265 284/467/274 283/466/273 
f 276/460/266 277/459/267 285/468/275 
f 276/460/266 285/468/275 284/469/274 
f 277/459/267 271/453/261 279/462/269 
f 277/459/267 279/462/269 285/468/275 
f 279/462/269 278/461/268 286/470/276 
f 279/462/269 286/470/276 287/471/277 
f 278/461/268 280/463/270 288/472/278 
f 278/461/268 288/472/278 286/470/276 
f 280/463/270 281/464/271 289/473/279 
f 280/463/270 289/473/279 288/472/278 
f 281/464/271 282/465/272 290/474/280 
f 281/464/271 290/474/280 289/473/279 
f 282/465/272 283/466/273 291/475/281 
f 282/465/272 291/475/281 290/474/280 
f 283/466/273 284/467/274 292/476/282 
f 283/466/273 292/476/282 291/475/281 
f 284/469/274 285/468/275 293/477/283 
f 284/469/274 293/477/283 292/478/282 
f 285/468/275 279/462/269 287/471/277 
f 285/468/275 287/471/277 293/477/283 
f 287/471/277 286/470/276 294/479/284 
f 287/471/277 294/479/284 295/480/285 
f 286/470/276 288/472/278 296/481/286 
f 286/470/276 296/481/286 294/479/284 
f 288/472/278 289/473/279 297/482/287 
f 288/472/278 297/482/287 296/481/286 
f 289/473/279 290/474/280 298/483/288 
f 289/473/279 298/483/288 297/482/287 
f 290/474/280 291/475/281 299/484/289 
f 290/474/280 299/484/289 298/483/288 
f 291/475/281 292/476/282 300/485/290 
f 291/475/281 300/485/290 299/484/289 
f 292/478/282 293/477/283 301/486/291 
f 292/478/282 301/486/291 300/487/290 
f 293/477/283 287/471/277 295/480/285 
f 293/477/283 295/480/285 301/486/291 
f 295/480/285 294/479/284 302/488/292 
f 295/480/285 302/488/292 303/489/293 
f 294/479/284 296/481/286 304/490/294 
f 294/479/284 304/490/294 302/488/292 
f 296/481/286 297/482/287 305/491/295 
f 296/481/286 305/491/295 304/490/294 
f 297/482/287 298/483/288 306/492/296 
f 297/482/287 306/492/296 305/491/295 
f 298/483/288 299/484/289 307/493/297 
f 298/483/288 307/493/297 306/492/296 
f 299/484/289 300/485/290 308/494/298 
f 299/484/289 308/494/298 307/493/297 
f 300/487/290 301/486/291 309/495/299 
f 300/487/290 309/495/299 308/496/298 
f 301/486/291 295/480/285 303/489/293 
f 301/486/291 303/489/293 309/495/299 
f 303/489/293 302/488/292 310/497/300 
f 303/489/293 310/497/300 311/498/301 
f 302/488/292 304/490/294 312/499/302 
f 302/488/292 312/499/302 310/497/300 
f 304/490/294 305/491/295 313/500/303 
f 304/490/294 313/500/303 312/499/302 
f 305/491/295 306/492/296 314/501/304 
f 305/491/295 314/501/304 313/500/303 
f 306/492/296 307/493/297 315/502/305 
f 306/492/296 315/502/305 314/501/304 
f 307/493/297 308/494/298 316/503/306 
f 307/493/297 316/503/306 315/502/305 
f 308/496/298 309/495/299 317/504/307 
f 308/496/298 317/504/307 316/505/306 
f 309/495/299 303/489/293 311/498/301 
f 309/495/299 311/498/301 317/504/307 
f 311/498/301 310/497/300 318/506/308 
f 311/498/301 318/506/308 319/507/309 
f 310/497/300 312/499/302 320/508/310 
f 310/497/300 320/508/310 318/506/308 
f 312/499/302 313/500/303 321/509/311 
f 312/499/302 321/509/311 320/508/310 
f 313/500/303 314/501/304 322/510/312 
f 313/500/303 322/510/312 321/509/311 
f 314/501/304 315/502/305 323/511/313 
f 314/501/304 323/511/313 322/510/312 
f 315/502/305 316/503/306 324/512/314 
f 315/502/305 324/512/314 323/511/313 
f 316/505/306 317/504/307 325/513/315 
f 316/505/306 325/513/315 324/514/314 
f 317/504/307 311/498/301 319/507/309 
f 317/504/307 319/507/309 325/513/315 
f 319/507/309 318/506/308 326/515/316 
f 319/507/309 326/515/316 327/516/317 
f 318/506/308 320/508/310 328/517/318 
f 318/506/308 328/517/318 326/515/316 
f 320/508/310 321/509/311 329/518/319 
f 320/508/310 329/518/319 328/517/318 
f 321/509/311 322/510/312 330/519/320 
f 321/509/311 330/519/320 329/518/319 
f 322/510/312 323/511/313 331/520/321 
f 322/510/312 331/520/321 330/519/320 
f 323/511/313 324/512/314 332/521/322 
f 323/511/313 332/521/322 331/520/321 
f 324/514/314 325/513/315 333/522/323 
f 324/514/314 333/522/323 332/523/322 
f 325/513/315 319/507/309 327/516/317 
f 325/513/315 327/516/317 333/522/323 
f 327/516/317 326/515/316 334/524/324 
f 327/516/317 334/524/324 335/525/325 
f 326/515/316 328/517/318 336/526/326 
f 326/515/316 336/526/326 334/524/324 
f 328/517/318 329/518/319 337/527/327 
f 328/517/318 337/527/327 336/526/326 
f 329/518/319 330/519/320 338/528/328 
f 329/518/319 338/528/328 337/527/327 
f 330/519/320 331/520/321 339/529/329 
f 330/519/320 339/529/329 338/528/328 
f 331/520/321 332/521/322 340/530/330 
f 331/520/321 340/530/330 339/529/329 
f 332/523/322 333/522/323 341/531/331 
f 332/523/322 341/531/331 340/532/330 
f 333/522/323 327/516/317 335/525/325 
f 333/522/323 335/525/325 341/531/331 
f 335/525/325 334/524/324 342/533/332 
f 335/525/325 342/533/332 343/534/333 
f 334/524/324 336/526/326 344/535/334 
f 334/524/324 344/535/334 342/533/332 
f 336/526/326 337/527/327 345/536/335 
f 336/526/326 345/536/335 344/535/334 
f 337/527/327 338/528/328 346/537/336 
f 337/527/327 346/537/336 345/536/335 
f 338/528/328 339/529/329 347/538/337 
f 338/528/328 347/538/337 346/537/336 
f 339/529/329 340/530/330 348/539/338 
f 339/529/329 348/539/338 347/538/337 
f 340/532/330 341/531/331 349/540/339 
f 340/532/330 349/540/339 348/541/338 
f 341/531/331 335/525/325 343/534/333 
f 341/531/331 343/534/333 349/540/339 
f 343/534/333 342/533/332 350/542/340 
f 343/534/333 350/542/340 351/543/341 
f 342/533/332 344/535/334 352/544/342 
f 342/533/332 352/544/342 350/542/340 
f 344/535/334 345/536/335 353/545/343 
f 344/535/334 353/545/343 352/544/342 
f 345/536/335 346/537/336 354/546/344 
f 345/536/335 354/546/344 353/545/343 
f 346/537/336 347/538/337 355/547/345 
f 346/537/336 355/547/345 354/546/344 
f 347/538/337 348/539/338 356/548/346 
f 347/538/337 356/548/346 355/547/345 
f 348/541/338 349/540/339 357/549/347 
f 348/541/338 357/549/347 356/550/346 
f 349/540/339 343/534/333 351/543/341 
f 349/540/339 351/543/341 357/549/347 
f 351/543/341 350/542/340 358/551/348 
f 351/543/341 358/551/348 359/552/349 
f 350/542/340 352/544/342 360/553/350 
f 350/542/340 360/553/350 358/551/348 
f 352/544/342 353/545/343 361/554/351 
f 352/544/342 361/554/351 360/553/350 
f 353/545/343 354/546/344 362/555/352 
f 353/545/343 362/555/352 361/554/351 
f 354/546/344 355/547/345 363/556/353 
f 354/546/344 363/556/353 362/555/352 
f 355/547/345 356/548/346 364/557/354 
f 355/547/345 364/557/354 363/556/353 
f 356/550/346 357/549/347 365/558/355 
f 356/550/346 365/558/355 364/559/354 
f 357/549/347 351/543/341 359/552/349 
f 357/549/347 359/552/349 365/558/355 
f 359/552/349 358/551/348 366/560/356 
f 359/552/349 366/560/356 367/561/357 
f 358/551/348 360/553/350 368/562/358 
f 358/551/348 368/562/358 366/560/356 
f 360/553/350 361/554/351 369/563/359 
f 360/553/350 369/563/359 368/562/358 
f 361/554/351 362/555/352 370/564/360 
f 361/554/351 370/564/360 369/563/359 
f 362/555/352 363/556/353 371/565/361 
f 362/555/352 371/565/361 370/564/360 
f 363/556/353 364/557/354 372/566/362 
f 363/556/353 372/566/362 371/565/361 
f 364/559/354 365/558/355 373/567/363 
f 364/559/354 373/567/363 372/568/362 
f 365/558/355 359/552/349 367/561/357 
f 365/558/355 367/561/357 373/567/363 
f 367/561/357 366/560/356 374/569/364 
f 367/561/357 374/569/364 375/570/365 
f 366/560/356 368/562/358 376/571/366 
f 366/560/356 376/571/366 374/569/364 
f 368/562/358 369/563/359 377/572/367 
f 368/562/358 377/572/367 376/571/366 
f 369/563/359 370/564/360 378/573/368 
f 369/563/359 378/573/368 377/572/367 
f 370/564/360 371/565/361 379/574/369 
f 370/564/360 379/574/369 378/573/368 
f 371/565/361 372/566/362 380/575/370 
f 371/565/361 380/575/370 379/574/369 
f 372/568/362 373/567/363 381/576/371 
f 372/568/362 381/576/371 380/577/370 
f 373/567/363 367/561/357 375/570/365 
f 373/567/363 375/570/365 381/576/371 
f 375/570/365 374/569/364 382/578/372 
f 375/570/365 382/578/372 383/579/373 
f 374/569/364 376/571/366 384/580/374 
f 374/569/364 384/580/374 382/578/372 
f 376/571/366 377/572/367 385/581/375 
f 376/571/366 385/581/375 384/580/374 
f 377/572/367 378/573/368 386/582/376 
f 377/572/367 386/582/376 385/581/375 
f 378/573/368 379/574/369 387/583/377 
f 378/573/368 387/583/377 386/582/376 
f 379/574/369 380/575/370 388/584/378 
f 379/574/369 388/584/378 387/583/377 
f 380/577/370 381/576/371 389/585/379 
f 380/577/370 389/585/379 388/586/378 
f 381/576/371 375/570/365 383/579/373 
f 381/576/371 383/579/373 389/585/379 
f 390/587/380 391/588/381 191/363/181 
f 390/587/380 191/363/181 190/362/180 
f 391/588/381 392/589/382 194/366/184 
f 391/588/381 194/366/184 191/363/181 
f 392/589/382 393/590/383 196/368/186 
f 392/589/382 196/368/186 194/366/184 
f 393/590/383 394/591/384 198/370/188 
f 393/590/383 198/370/188 196/368/186 
f 394/591/384 395/592/385 200/372/190 
f 394/591/384 200/372/190 198/370/188 
f 395/592/385 396/593/386 202/374/192 
f 395/592/385 202/374/192 200/372/190 
f 396/594/386 397/595/387 204/377/194 
f 396/594/386 204/377/194 202/376/192 
f 397/595/387 390/587/380 190/362/180 
f 397/595/387 190/362/180 204/377/194 
f 398/596/388 399/597/389 391/588/381 
f 398/596/388 391/588/381 390/587/380 
f 399/597/389 400/598/390 392/589/382 
f 399/597/389 392/589/382 391/588/381 
f 400/598/390 401/599/391 393/590/383 
f 400/598/390 393/590/383 392/589/382 
f 401/599/391 402/600/392 394/591/384 
f 401/599/391 394/591/384 393/590/383 
f 402/600/392 403/601/393 395/592/385 
f 402/600/392 395/592/385 394/591/384 
f 403/601/393 404/602/394 396/593/386 
f 403/601/393 396/593/386 395/592/385 
f 404/603/394 405/604/395 397/595/387 
f 404/603/394 397/595/387 396/594/386 
f 405/604/395 398/596/388 390/587/380 
f 405/604/395 390/587/380 397/595/387 
f 406/605/396 407/606/397 399/597/389 
f 406/605/396 399/597/389 398/596/388 
f 407/606/397 408/607/398 400/598/390 
f 407/606/397 400/598/390 399/597/389 
f 408/607/398 409/608/399 401/599/391 
f 408/607/398 401/599/391 400/598/390 
f 409/608/399 410/609/400 402/600/392 
f 409/608/399 402/600/392 401/599/391 
f 410/609/400 411/610/401 403/601/393 
f 410/609/400 403/601/393 402/600/392 
f 411/610/401 412/611/402 404/602/394 
f 411/610/401 404/602/394 403/601/393 
f 412/612/402 413/613/403 405/604/395 
f 412/612/402 405/604/395 404/603/394 
f 413/613/403 406/605/396 398/596/388 
f 413/613/403 398/596/388 405/604/395 
f 414/614/404 415/615/405 407/606/397 
f 414/614/404 407/606/397 406/605/396 
f 415/615/405 416/616/406 408/607/398 
f 415/615/405 408/607/398 407/606/397 
f 416/616/406 417/617/407 409/608/399 
f 416/616/406 409/608/399 408/607/398 
f 417/617/407 418/618/408 410/609/400 
f 417/617/407 410/609/400 409/608/399 
f 418/618/408 419/619/409 411/610/401 
f 418/618/408 411/610/401 410/609/400 
f 419/619/409 420/620/410 412/611/402 
f 419/619/409 412/611/402 411/610/401 
f 420/621/410 421/622/411 413/613/403 
f 420/621/410 413/613/403 412/612/402 
f 421/622/411 414/614/404 406/605/396 
f 421/622/411 406/605/396 413/613/403 
f 422/623/412 423/624/413 383/579/373 
f 422/623/412 383/579/373 382/578/372 
f 424/625/414 422/623/412 382/578/372 
f 424/625/414 382/578/372 384/580/374 
f 425/626/415 424/625/414 384/580/374 
f 425/626/415 384/580/374 385/581/375 
f 426/627/416 425/626/415 385/581/375 
f 426/627/416 385/581/375 386/582/376 
f 427/628/417 426/627/416 386/582/376 
f 427/628/417 386/582/376 387/583/377 
f 428/629/418 427/628/417 387/583/377 
f 428/629/418 387/583/377 388/584/378 
f 429/630/419 428/631/418 388/586/378 
f 429/630/419 388/586/378 389/585/379 
f 423/624/413 429/630/419 389/585/379 
f 423/624/413 389/585/379 383/579/373 
f 430/632/420 431/633/421 423/624/413 
f 430/632/420 423/624/413 422/623/412 
f 432/634/422 430/632/420 422/623/412 
f 432/634/422 422/623/412 424/625/414 
f 433/635/423 432/634/422 424/625/414 
f 433/635/423 424/625/414 425/626/415 
f 434/636/424 433/635/423 425/626/415 
f 434/636/424 425/626/415 426/627/416 
f 435/637/425 434/636/424 426/627/416 
f 435/637/425 426/627/416 427/628/417 
f 436/638/426 435/637/425 427/628/417 
f 436/638/426 427/628/417 428/629/418 
f 437/639/427 436/640/426 428/631/418 
f 437/639/427 428/631/418 429/630/419 
f 431/633/421 437/639/427 429/630/419 
f 431/633/421 429/630/419 423/624/413 
# 0 polygons - 850 triangles

