# 3ds Max Wavefront OBJ Exporter v0.99 - (c)2007 guruware
# File Created: 02.09.2021 12:22:15

#
# object lowpoly_obj
#

v  0.1966 0.0000 0.1563
v  0.2000 0.0000 0.1437
v  0.2000 0.0062 0.1437
v  0.1966 0.0062 0.1563
v  0.1750 0.0062 0.1437
v  0.1750 0.0000 0.1437
v  0.1875 0.0000 0.1654
v  0.1875 0.0062 0.1654
v  0.1750 0.0000 0.1688
v  0.1750 0.0062 0.1688
v  -0.1875 0.0000 0.1654
v  -0.1750 0.0000 0.1688
v  -0.1750 0.0062 0.1688
v  -0.1875 0.0062 0.1654
v  -0.1750 0.0062 0.1437
v  -0.1750 0.0000 0.1437
v  -0.1967 0.0000 0.1563
v  -0.1967 0.0062 0.1563
v  -0.2000 0.0000 0.1437
v  -0.2000 0.0062 0.1437
v  -0.1967 0.0000 -0.1563
v  -0.2000 0.0000 -0.1437
v  -0.2000 0.0062 -0.1437
v  -0.1967 0.0062 -0.1563
v  -0.1750 0.0062 -0.1437
v  -0.1750 0.0000 -0.1437
v  -0.1875 0.0000 -0.1654
v  -0.1875 0.0062 -0.1654
v  -0.1750 0.0000 -0.1688
v  -0.1750 0.0062 -0.1688
v  0.1875 0.0000 -0.1654
v  0.1750 0.0000 -0.1688
v  0.1750 0.0062 -0.1688
v  0.1875 0.0062 -0.1654
v  0.1750 0.0062 -0.1437
v  0.1750 0.0000 -0.1437
v  0.1966 0.0000 -0.1563
v  0.1966 0.0062 -0.1563
v  0.2000 0.0000 -0.1437
v  0.2000 0.0062 -0.1437
# 40 vertices

vn 0.0000 -0.0000 416648654754460729344.0000
vn 0.6017 0.7192 0.3474
vn 0.6980 0.7101 0.0919
vn 0.0000 1.0000 0.0000
vn 0.6980 -0.7101 0.0919
vn 0.6017 -0.7192 0.3474
vn 0.0000 -1.0000 0.0000
vn 0.3474 0.7193 0.6017
vn 0.3474 -0.7193 0.6017
vn 0.0919 0.7101 0.6980
vn 0.0919 -0.7101 0.6980
vn -0.3474 0.7193 0.6017
vn -0.0919 0.7101 0.6980
vn -0.0919 -0.7101 0.6980
vn -0.3474 -0.7193 0.6017
vn -0.6017 0.7193 0.3474
vn -0.6017 -0.7193 0.3474
vn -0.6980 0.7101 0.0919
vn -0.6980 -0.7101 0.0919
vn -0.6017 0.7193 -0.3474
vn -0.6980 0.7101 -0.0919
vn -0.6980 -0.7101 -0.0919
vn -0.6017 -0.7193 -0.3474
vn -0.3474 0.7193 -0.6017
vn -0.3474 -0.7193 -0.6017
vn -0.0919 0.7101 -0.6980
vn -0.0919 -0.7101 -0.6980
vn 0.3474 0.7193 -0.6017
vn 0.0919 0.7101 -0.6980
vn 0.0919 -0.7101 -0.6980
vn 0.3474 -0.7193 -0.6017
vn 0.6017 0.7192 -0.3474
vn 0.6017 -0.7192 -0.3474
vn 0.6980 0.7101 -0.0919
vn 0.6980 -0.7101 -0.0919
# 35 vertex normals

vt 0.4831 0.5898 0.0000
vt 0.4606 0.5956 0.0000
vt 0.4606 0.5866 0.0000
vt 0.4784 0.5817 0.0000
vt 0.4606 0.5509 0.0000
vt 0.5481 0.5779 0.0000
vt 0.5303 0.5731 0.0000
vt 0.5481 0.5422 0.0000
vt 0.4996 0.5733 0.0000
vt 0.4914 0.5687 0.0000
vt 0.5172 0.5600 0.0000
vt 0.5053 0.5509 0.0000
vt 0.4964 0.5509 0.0000
vt 0.5124 0.5422 0.0000
vt 0.4996 0.0281 0.0000
vt 0.5053 0.0505 0.0000
vt 0.4964 0.0505 0.0000
vt 0.4914 0.0328 0.0000
vt 0.4606 0.0505 0.0000
vt 0.5124 0.0416 0.0000
vt 0.5172 0.0237 0.0000
vt 0.5481 0.0416 0.0000
vt 0.4831 0.0116 0.0000
vt 0.4784 0.0197 0.0000
vt 0.5303 0.0106 0.0000
vt 0.4606 0.0059 0.0000
vt 0.4606 0.0148 0.0000
vt 0.5481 0.0059 0.0000
vt 0.0272 0.0116 0.0000
vt 0.0496 0.0059 0.0000
vt 0.0496 0.0148 0.0000
vt 0.0319 0.0197 0.0000
vt 0.0496 0.0505 0.0000
vt 0.9593 0.0059 0.0000
vt 0.9772 0.0106 0.0000
vt 0.9593 0.0416 0.0000
vt 0.0107 0.0281 0.0000
vt 0.0188 0.0328 0.0000
vt 0.9903 0.0237 0.0000
vt 0.0050 0.0505 0.0000
vt 0.0139 0.0505 0.0000
vt 0.9950 0.0416 0.0000
vt 0.0107 0.5733 0.0000
vt 0.0050 0.5509 0.0000
vt 0.0139 0.5509 0.0000
vt 0.0188 0.5687 0.0000
vt 0.0496 0.5509 0.0000
vt 0.9950 0.5422 0.0000
vt 0.9903 0.5600 0.0000
vt 0.9593 0.5422 0.0000
vt 0.0272 0.5898 0.0000
vt 0.0318 0.5817 0.0000
vt 0.9772 0.5731 0.0000
vt 0.0496 0.5956 0.0000
vt 0.0496 0.5866 0.0000
vt 0.9593 0.5779 0.0000
# 56 texture coords

o lowpoly_obj
g lowpoly_obj
s 1
f 1/1/1 2/2/1 3/3/1 4/4/1 
f 4/4/2 3/3/3 5/5/4 
f 2/6/5 1/7/6 6/8/7 
f 7/9/1 1/1/1 4/4/1 8/10/1 
f 8/10/8 4/4/2 5/5/4 
f 1/7/6 7/11/9 6/8/7 
f 9/12/1 7/9/1 8/10/1 10/13/1 
f 10/13/10 8/10/8 5/5/4 
f 7/11/9 9/14/11 6/8/7 
f 11/15/1 12/16/1 13/17/1 14/18/1 
f 14/18/12 13/17/13 15/19/4 
f 12/20/14 11/21/15 16/22/7 
f 17/23/1 11/15/1 14/18/1 18/24/1 
f 18/24/16 14/18/12 15/19/4 
f 11/21/15 17/25/17 16/22/7 
f 19/26/1 17/23/1 18/24/1 20/27/1 
f 20/27/18 18/24/16 15/19/4 
f 17/25/17 19/28/19 16/22/7 
f 21/29/1 22/30/1 23/31/1 24/32/1 
f 24/32/20 23/31/21 25/33/4 
f 22/34/22 21/35/23 26/36/7 
f 27/37/1 21/29/1 24/32/1 28/38/1 
f 28/38/24 24/32/20 25/33/4 
f 21/35/23 27/39/25 26/36/7 
f 29/40/1 27/37/1 28/38/1 30/41/1 
f 30/41/26 28/38/24 25/33/4 
f 27/39/25 29/42/27 26/36/7 
f 31/43/1 32/44/1 33/45/1 34/46/1 
f 34/46/28 33/45/29 35/47/4 
f 32/48/30 31/49/31 36/50/7 
f 37/51/1 31/43/1 34/46/1 38/52/1 
f 38/52/32 34/46/28 35/47/4 
f 31/49/31 37/53/33 36/50/7 
f 39/54/1 37/51/1 38/52/1 40/55/1 
f 40/55/34 38/52/32 35/47/4 
f 37/53/33 39/56/35 36/50/7 
f 13/17/1 12/16/1 9/12/1 10/13/1 
f 15/19/1 13/17/1 10/13/1 5/5/1 
f 12/20/1 16/22/1 6/8/1 9/14/1 
f 29/40/1 30/41/1 33/45/1 32/44/1 
f 30/41/1 25/33/1 35/47/1 33/45/1 
f 26/36/1 29/42/1 32/48/1 36/50/1 
f 19/26/1 20/27/1 23/31/1 22/30/1 
f 20/27/1 15/19/1 25/33/1 23/31/1 
f 16/22/1 19/28/1 22/34/1 26/36/1 
f 3/3/1 2/2/1 39/54/1 40/55/1 
f 5/5/1 3/3/1 40/55/1 35/47/1 
f 2/6/1 6/8/1 36/50/1 39/56/1 
f 15/19/1 5/5/1 35/47/1 25/33/1 
f 6/8/1 16/22/1 26/36/1 36/50/1 
# 26 polygons - 24 triangles

