%YAML 1.1
%TAG !u! tag:unity3d.com,2011:
--- !u!1 &6421248849010512748
GameObject:
  m_ObjectHideFlags: 0
  m_CorrespondingSourceObject: {fileID: 0}
  m_PrefabInstance: {fileID: 0}
  m_PrefabAsset: {fileID: 0}
  serializedVersion: 6
  m_Component:
  - component: {fileID: 6421248849010512753}
  - component: {fileID: 6421248849010512750}
  - component: {fileID: 6421248849010512751}
  m_Layer: 0
  m_Name: Flamethrower - Scatter
  m_TagString: Untagged
  m_Icon: {fileID: 0}
  m_NavMeshLayer: 0
  m_StaticEditorFlags: 0
  m_IsActive: 1
--- !u!4 &6421248849010512753
Transform:
  m_ObjectHideFlags: 0
  m_CorrespondingSourceObject: {fileID: 0}
  m_PrefabInstance: {fileID: 0}
  m_PrefabAsset: {fileID: 0}
  m_GameObject: {fileID: 6421248849010512748}
  m_LocalRotation: {x: 0, y: 0, z: 0, w: 1}
  m_LocalPosition: {x: -18.783703, y: 1.3750849, z: -1.0852041}
  m_LocalScale: {x: 1, y: 1, z: 1}
  m_Children: []
  m_Father: {fileID: 0}
  m_RootOrder: 0
  m_LocalEulerAnglesHint: {x: 0, y: 0, z: 0}
--- !u!2083052967 &6421248849010512750
VisualEffect:
  m_ObjectHideFlags: 0
  m_CorrespondingSourceObject: {fileID: 0}
  m_PrefabInstance: {fileID: 0}
  m_PrefabAsset: {fileID: 0}
  m_GameObject: {fileID: 6421248849010512748}
  m_Enabled: 1
  m_Asset: {fileID: 8926484042661614526, guid: a54097cece56f994c82e92756c7d7091, type: 3}
  m_InitialEventName: OnPlay
  m_InitialEventNameOverriden: 0
  m_StartSeed: 0
  m_ResetSeedOnPlay: 1
  m_ResourceVersion: 1
  m_PropertySheet:
    m_Float:
      m_Array:
      - m_Value: 4.89
        m_Name: Lifetime Max
        m_Overridden: 1
      - m_Value: 0.1
        m_Name: Gravity
        m_Overridden: 1
      - m_Value: 6.96
        m_Name: Max Speed
        m_Overridden: 1
    m_Vector2f:
      m_Array: []
    m_Vector3f:
      m_Array: []
    m_Vector4f:
      m_Array: []
    m_Uint:
      m_Array: []
    m_Int:
      m_Array:
      - m_Value: 2411
        m_Name: Spawn Rate
        m_Overridden: 1
    m_Matrix4x4f:
      m_Array: []
    m_AnimationCurve:
      m_Array:
      - m_Value:
          serializedVersion: 2
          m_Curve:
          - serializedVersion: 3
            time: 0
            value: 0.00000017881393
            inSlope: 0
            outSlope: 0
            tangentMode: 0
            weightedMode: 0
            inWeight: 0.33333334
            outWeight: 0.33333334
          - serializedVersion: 3
            time: 0.47300482
            value: 0.37741852
            inSlope: 0
            outSlope: 0
            tangentMode: 0
            weightedMode: 0
            inWeight: 0.33333334
            outWeight: 0.33333334
          - serializedVersion: 3
            time: 1
            value: -0.001267314
            inSlope: 0
            outSlope: 0
            tangentMode: 0
            weightedMode: 0
            inWeight: 0.33333334
            outWeight: 0.33333334
          m_PreInfinity: 2
          m_PostInfinity: 2
          m_RotationOrder: 4
        m_Name: Size
        m_Overridden: 1
    m_Gradient:
      m_Array:
      - m_Value:
          serializedVersion: 2
          key0: {r: 1, g: 1, b: 1, a: 0}
          key1: {r: 0.28945124, g: 0.32491127, b: 0.973674, a: 0.1882353}
          key2: {r: 7.9195943, g: 2.1380837, b: 0.48270532, a: 1}
          key3: {r: 0, g: 0, b: 0, a: 0}
          key4: {r: 38.544304, g: 7.561139, b: 0.109546795, a: 0}
          key5: {r: 97.00587, g: 16.965874, b: 0, a: 0}
          key6: {r: 2.4966612, g: 0.31204805, b: 0, a: 0}
          key7: {r: 0.035505187, g: 0.009790925, b: 0.0021974377, a: 0}
          ctime0: 0
          ctime1: 18890
          ctime2: 22604
          ctime3: 25043
          ctime4: 27645
          ctime5: 32768
          ctime6: 36815
          ctime7: 43744
          atime0: 0
          atime1: 16577
          atime2: 30262
          atime3: 65535
          atime4: 0
          atime5: 0
          atime6: 0
          atime7: 0
          m_Mode: 0
          m_NumColorKeys: 8
          m_NumAlphaKeys: 4
        m_Name: Color
        m_Overridden: 1
    m_NamedObject:
      m_Array:
      - m_Value: {fileID: 0}
        m_Name: SDF
        m_Overridden: 1
    m_Bool:
      m_Array: []
--- !u!73398921 &6421248849010512751
VFXRenderer:
  m_ObjectHideFlags: 0
  m_CorrespondingSourceObject: {fileID: 0}
  m_PrefabInstance: {fileID: 0}
  m_PrefabAsset: {fileID: 0}
  m_GameObject: {fileID: 6421248849010512748}
  m_Enabled: 0
  m_CastShadows: 1
  m_ReceiveShadows: 0
  m_DynamicOccludee: 1
  m_MotionVectors: 1
  m_LightProbeUsage: 1
  m_ReflectionProbeUsage: 0
  m_RayTracingMode: 0
  m_RayTraceProcedural: 0
  m_RenderingLayerMask: 1
  m_RendererPriority: 0
  m_Materials:
  - {fileID: 0}
  - {fileID: 0}
  - {fileID: 0}
  m_StaticBatchInfo:
    firstSubMesh: 0
    subMeshCount: 0
  m_StaticBatchRoot: {fileID: 0}
  m_ProbeAnchor: {fileID: 0}
  m_LightProbeVolumeOverride: {fileID: 0}
  m_ScaleInLightmap: 1
  m_ReceiveGI: 1
  m_PreserveUVs: 0
  m_IgnoreNormalsForChartDetection: 0
  m_ImportantGI: 0
  m_StitchLightmapSeams: 1
  m_SelectedEditorRenderState: 3
  m_MinimumChartSize: 4
  m_AutoUVMaxDistance: 0.5
  m_AutoUVMaxAngle: 89
  m_LightmapParameters: {fileID: 0}
  m_SortingLayerID: 0
  m_SortingLayer: 0
  m_SortingOrder: 0
