%YAML 1.1
%TAG !u! tag:unity3d.com,2011:
--- !u!1 &9027558376540389634
GameObject:
  m_ObjectHideFlags: 0
  m_CorrespondingSourceObject: {fileID: 0}
  m_PrefabInstance: {fileID: 0}
  m_PrefabAsset: {fileID: 0}
  serializedVersion: 6
  m_Component:
  - component: {fileID: 9027558376540389662}
  - component: {fileID: 9027558376540389661}
  - component: {fileID: 9027558376540389660}
  - component: {fileID: 9027558376540389635}
  m_Layer: 0
  m_Name: Mesh - Fast Burn
  m_TagString: Untagged
  m_Icon: {fileID: 0}
  m_NavMeshLayer: 0
  m_StaticEditorFlags: 0
  m_IsActive: 1
--- !u!4 &9027558376540389662
Transform:
  m_ObjectHideFlags: 0
  m_CorrespondingSourceObject: {fileID: 0}
  m_PrefabInstance: {fileID: 0}
  m_PrefabAsset: {fileID: 0}
  m_GameObject: {fileID: 9027558376540389634}
  m_LocalRotation: {x: 0, y: 0, z: 0, w: 1}
  m_LocalPosition: {x: -13.101162, y: 1.5832567, z: -0.58133954}
  m_LocalScale: {x: 0.47286, y: 0.47286, z: 0.47286}
  m_Children: []
  m_Father: {fileID: 0}
  m_RootOrder: 0
  m_LocalEulerAnglesHint: {x: 0, y: 0, z: 0}
--- !u!2083052967 &9027558376540389661
VisualEffect:
  m_ObjectHideFlags: 0
  m_CorrespondingSourceObject: {fileID: 0}
  m_PrefabInstance: {fileID: 0}
  m_PrefabAsset: {fileID: 0}
  m_GameObject: {fileID: 9027558376540389634}
  m_Enabled: 1
  m_Asset: {fileID: 8926484042661614526, guid: 7e4e58409a3be0c49881b2a8509aa21c, type: 3}
  m_InitialEventName: OnPlay
  m_InitialEventNameOverriden: 0
  m_StartSeed: 0
  m_ResetSeedOnPlay: 1
  m_ResourceVersion: 1
  m_PropertySheet:
    m_Float:
      m_Array:
      - m_Value: 1.44
        m_Name: Lifetime Max
        m_Overridden: 1
      - m_Value: 5.47
        m_Name: Gravity
        m_Overridden: 1
      - m_Value: 1.11
        m_Name: Max Speed
        m_Overridden: 1
      - m_Value: 4.2803864
        m_Name: TotalSize
        m_Overridden: 1
      - m_Value: 4.2803864
        m_Name: PivotOffset
        m_Overridden: 1
    m_Vector2f:
      m_Array: []
    m_Vector3f:
      m_Array: []
    m_Vector4f:
      m_Array: []
    m_Uint:
      m_Array: []
    m_Int:
      m_Array: []
    m_Matrix4x4f:
      m_Array: []
    m_AnimationCurve:
      m_Array:
      - m_Value:
          serializedVersion: 2
          m_Curve:
          - serializedVersion: 3
            time: 0.000014929101
            value: 1.1444364
            inSlope: -2.2042947
            outSlope: -2.2042947
            tangentMode: 0
            weightedMode: 0
            inWeight: 0
            outWeight: 0
          - serializedVersion: 3
            time: 0.3989812
            value: 0.660664
            inSlope: -1.0174495
            outSlope: -1.0174495
            tangentMode: 0
            weightedMode: 0
            inWeight: 0.18066067
            outWeight: 0.33333334
          - serializedVersion: 3
            time: 0.9999937
            value: -0.0015358464
            inSlope: -1.559049
            outSlope: -1.559049
            tangentMode: 0
            weightedMode: 0
            inWeight: 0
            outWeight: 0
          m_PreInfinity: 2
          m_PostInfinity: 2
          m_RotationOrder: 4
        m_Name: Size
        m_Overridden: 1
    m_Gradient:
      m_Array:
      - m_Value:
          serializedVersion: 2
          key0: {r: 1, g: 1, b: 1, a: 0}
          key1: {r: 0.44520125, g: 0.3813261, b: 2.1615758, a: 0.1882353}
          key2: {r: 0.28945124, g: 0.32491127, b: 0.973674, a: 1}
          key3: {r: 97.00587, g: 16.965874, b: 0, a: 0}
          key4: {r: 2.4966612, g: 0.31204805, b: 0, a: 0}
          key5: {r: 0.035505187, g: 0.009790925, b: 0.0021974377, a: 0}
          key6: {r: 0.20754719, g: 0.09849553, b: 0.028390896, a: 0}
          key7: {r: 0.39519405, g: 0.23141655, b: 0.1257537, a: 0}
          ctime0: 0
          ctime1: 6939
          ctime2: 12722
          ctime3: 21010
          ctime4: 32768
          ctime5: 45489
          ctime6: 45489
          ctime7: 56283
          atime0: 0
          atime1: 16577
          atime2: 30262
          atime3: 65535
          atime4: 0
          atime5: 0
          atime6: 0
          atime7: 0
          m_Mode: 0
          m_NumColorKeys: 6
          m_NumAlphaKeys: 4
        m_Name: Color
        m_Overridden: 1
    m_NamedObject:
      m_Array:
      - m_Value: {fileID: 0}
        m_Name: SDF
        m_Overridden: 1
      - m_Value: {fileID: 0}
        m_Name: PointCache
        m_Overridden: 1
    m_Bool:
      m_Array: []
--- !u!73398921 &9027558376540389660
VFXRenderer:
  m_ObjectHideFlags: 0
  m_CorrespondingSourceObject: {fileID: 0}
  m_PrefabInstance: {fileID: 0}
  m_PrefabAsset: {fileID: 0}
  m_GameObject: {fileID: 9027558376540389634}
  m_Enabled: 0
  m_CastShadows: 1
  m_ReceiveShadows: 0
  m_DynamicOccludee: 1
  m_MotionVectors: 1
  m_LightProbeUsage: 1
  m_ReflectionProbeUsage: 0
  m_RayTracingMode: 0
  m_RayTraceProcedural: 0
  m_RenderingLayerMask: 1
  m_RendererPriority: 0
  m_Materials:
  - {fileID: 0}
  - {fileID: 0}
  m_StaticBatchInfo:
    firstSubMesh: 0
    subMeshCount: 0
  m_StaticBatchRoot: {fileID: 0}
  m_ProbeAnchor: {fileID: 0}
  m_LightProbeVolumeOverride: {fileID: 0}
  m_ScaleInLightmap: 1
  m_ReceiveGI: 1
  m_PreserveUVs: 0
  m_IgnoreNormalsForChartDetection: 0
  m_ImportantGI: 0
  m_StitchLightmapSeams: 1
  m_SelectedEditorRenderState: 3
  m_MinimumChartSize: 4
  m_AutoUVMaxDistance: 0.5
  m_AutoUVMaxAngle: 89
  m_LightmapParameters: {fileID: 0}
  m_SortingLayerID: 0
  m_SortingLayer: 0
  m_SortingOrder: 0
--- !u!114 &9027558376540389635
MonoBehaviour:
  m_ObjectHideFlags: 0
  m_CorrespondingSourceObject: {fileID: 0}
  m_PrefabInstance: {fileID: 0}
  m_PrefabAsset: {fileID: 0}
  m_GameObject: {fileID: 9027558376540389634}
  m_Enabled: 1
  m_EditorHideFlags: 0
  m_Script: {fileID: 11500000, guid: 9793d752364af2d459294cd7a3461e22, type: 3}
  m_Name: 
  m_EditorClassIdentifier: 
  MeshToAttach: {fileID: 0}
