%YAML 1.1
%TAG !u! tag:unity3d.com,2011:
--- !u!1 &7898781620399051640
GameObject:
  m_ObjectHideFlags: 0
  m_CorrespondingSourceObject: {fileID: 0}
  m_PrefabInstance: {fileID: 0}
  m_PrefabAsset: {fileID: 0}
  serializedVersion: 6
  m_Component:
  - component: {fileID: 7898781620399051621}
  - component: {fileID: 7898781620399051622}
  - component: {fileID: 7898781620399051623}
  m_Layer: 0
  m_Name: Portal - Strange Doctor
  m_TagString: Untagged
  m_Icon: {fileID: 0}
  m_NavMeshLayer: 0
  m_StaticEditorFlags: 0
  m_IsActive: 1
--- !u!4 &7898781620399051621
Transform:
  m_ObjectHideFlags: 0
  m_CorrespondingSourceObject: {fileID: 0}
  m_PrefabInstance: {fileID: 0}
  m_PrefabAsset: {fileID: 0}
  m_GameObject: {fileID: 7898781620399051640}
  m_LocalRotation: {x: 0, y: 0.7071068, z: 0, w: 0.7071068}
  m_LocalPosition: {x: -17.000702, y: 2.225, z: -0.9042041}
  m_LocalScale: {x: 1, y: 1, z: 1}
  m_Children: []
  m_Father: {fileID: 0}
  m_RootOrder: 0
  m_LocalEulerAnglesHint: {x: 0, y: 90, z: 0}
--- !u!2083052967 &7898781620399051622
VisualEffect:
  m_ObjectHideFlags: 0
  m_CorrespondingSourceObject: {fileID: 0}
  m_PrefabInstance: {fileID: 0}
  m_PrefabAsset: {fileID: 0}
  m_GameObject: {fileID: 7898781620399051640}
  m_Enabled: 1
  m_Asset: {fileID: 8926484042661614526, guid: 8169097d6a974514caffd00381660057, type: 3}
  m_InitialEventName: OnPlay
  m_InitialEventNameOverriden: 0
  m_StartSeed: 0
  m_ResetSeedOnPlay: 1
  m_ResourceVersion: 1
  m_PropertySheet:
    m_Float:
      m_Array:
      - m_Value: 2.23
        m_Name: Lifetime Max
        m_Overridden: 1
      - m_Value: -2.19
        m_Name: Gravity
        m_Overridden: 1
      - m_Value: 1.11
        m_Name: Max Speed
        m_Overridden: 1
      - m_Value: 4.2803864
        m_Name: TotalSize
        m_Overridden: 1
      - m_Value: 4.2803864
        m_Name: PivotOffset
        m_Overridden: 1
      - m_Value: 0
        m_Name: Vortex Radius
        m_Overridden: 1
      - m_Value: 40.34
        m_Name: Vortex Speed
        m_Overridden: 1
      - m_Value: 0.04
        m_Name: Spinner Radius
        m_Overridden: 1
      - m_Value: 2.58
        m_Name: Spinner Speed
        m_Overridden: 1
      - m_Value: 1.75
        m_Name: Turbulance
        m_Overridden: 1
    m_Vector2f:
      m_Array: []
    m_Vector3f:
      m_Array:
      - m_Value: {x: 0, y: 5, z: 0}
        m_Name: Direction
        m_Overridden: 0
      - m_Value: {x: 0, y: 0, z: 0}
        m_Name: Speed
        m_Overridden: 1
    m_Vector4f:
      m_Array: []
    m_Uint:
      m_Array: []
    m_Int:
      m_Array: []
    m_Matrix4x4f:
      m_Array: []
    m_AnimationCurve:
      m_Array:
      - m_Value:
          serializedVersion: 2
          m_Curve:
          - serializedVersion: 3
            time: 0.0072751623
            value: 1.5770143
            inSlope: 0.6182945
            outSlope: 0.6182945
            tangentMode: 0
            weightedMode: 0
            inWeight: 0
            outWeight: 0.17806046
          - serializedVersion: 3
            time: 0.9999937
            value: -0.0015358544
            inSlope: -11.380757
            outSlope: -11.380757
            tangentMode: 0
            weightedMode: 0
            inWeight: 0.03813467
            outWeight: 0
          m_PreInfinity: 2
          m_PostInfinity: 2
          m_RotationOrder: 4
        m_Name: Size
        m_Overridden: 1
    m_Gradient:
      m_Array:
      - m_Value:
          serializedVersion: 2
          key0: {r: 1, g: 1, b: 1, a: 0}
          key1: {r: 0.44520125, g: 0.3813261, b: 2.1615758, a: 0.1882353}
          key2: {r: 0.28945124, g: 0.32491127, b: 0.973674, a: 1}
          key3: {r: 97.00587, g: 16.965874, b: 0, a: 0}
          key4: {r: 2.4966612, g: 0.31204805, b: 0, a: 0}
          key5: {r: 0.035505187, g: 0.009790925, b: 0.0021974377, a: 0}
          key6: {r: 0.20754719, g: 0.09849553, b: 0.028390896, a: 0}
          key7: {r: 0.39519405, g: 0.23141655, b: 0.1257537, a: 0}
          ctime0: 0
          ctime1: 6939
          ctime2: 12722
          ctime3: 21010
          ctime4: 32768
          ctime5: 45489
          ctime6: 45489
          ctime7: 56283
          atime0: 0
          atime1: 16577
          atime2: 30262
          atime3: 65535
          atime4: 0
          atime5: 0
          atime6: 0
          atime7: 0
          m_Mode: 0
          m_NumColorKeys: 6
          m_NumAlphaKeys: 4
        m_Name: Color
        m_Overridden: 1
    m_NamedObject:
      m_Array:
      - m_Value: {fileID: 0}
        m_Name: SDF
        m_Overridden: 1
      - m_Value: {fileID: 0}
        m_Name: PointCache
        m_Overridden: 1
    m_Bool:
      m_Array:
      - m_Value: 0
        m_Name: CenterPart
        m_Overridden: 1
      - m_Value: 0
        m_Name: Sparkles
        m_Overridden: 1
      - m_Value: 0
        m_Name: Double
        m_Overridden: 1
--- !u!73398921 &7898781620399051623
VFXRenderer:
  m_ObjectHideFlags: 0
  m_CorrespondingSourceObject: {fileID: 0}
  m_PrefabInstance: {fileID: 0}
  m_PrefabAsset: {fileID: 0}
  m_GameObject: {fileID: 7898781620399051640}
  m_Enabled: 0
  m_CastShadows: 0
  m_ReceiveShadows: 0
  m_DynamicOccludee: 1
  m_MotionVectors: 0
  m_LightProbeUsage: 1
  m_ReflectionProbeUsage: 0
  m_RayTracingMode: 0
  m_RayTraceProcedural: 0
  m_RenderingLayerMask: 1
  m_RendererPriority: 0
  m_Materials:
  - {fileID: 0}
  m_StaticBatchInfo:
    firstSubMesh: 0
    subMeshCount: 0
  m_StaticBatchRoot: {fileID: 0}
  m_ProbeAnchor: {fileID: 0}
  m_LightProbeVolumeOverride: {fileID: 0}
  m_ScaleInLightmap: 1
  m_ReceiveGI: 1
  m_PreserveUVs: 0
  m_IgnoreNormalsForChartDetection: 0
  m_ImportantGI: 0
  m_StitchLightmapSeams: 1
  m_SelectedEditorRenderState: 3
  m_MinimumChartSize: 4
  m_AutoUVMaxDistance: 0.5
  m_AutoUVMaxAngle: 89
  m_LightmapParameters: {fileID: 0}
  m_SortingLayerID: 0
  m_SortingLayer: 0
  m_SortingOrder: 0
