# 3ds Max Wavefront OBJ Exporter v0.99 - (c)2007 guruware
# File Created: 02.09.2021 14:03:01

#
# object Utensil_Marker_obj
#

v  0.0812 -0.0032 0.0078
v  0.0812 -0.0078 0.0032
v  0.0938 -0.0039 0.0016
v  0.0938 -0.0016 0.0039
v  0.0812 0.0032 0.0078
v  0.0938 0.0016 0.0039
v  0.0812 0.0078 0.0032
v  0.0938 0.0039 0.0016
v  0.0812 0.0078 -0.0032
v  0.0938 0.0039 -0.0016
v  0.0812 0.0032 -0.0078
v  0.0938 0.0016 -0.0039
v  0.0812 -0.0032 -0.0078
v  0.0938 -0.0016 -0.0039
v  0.0812 -0.0078 -0.0032
v  0.0938 -0.0039 -0.0016
v  0.0938 0.0000 -0.0000
v  -0.0219 -0.0078 0.0032
v  -0.0219 -0.0032 0.0078
v  -0.0219 0.0032 0.0078
v  -0.0219 0.0078 0.0032
v  -0.0219 0.0078 -0.0032
v  -0.0219 0.0032 -0.0078
v  -0.0219 -0.0032 -0.0078
v  -0.0219 -0.0078 -0.0032
v  -0.0938 -0.0016 0.0039
v  -0.0938 -0.0039 0.0016
v  -0.0906 -0.0059 0.0024
v  -0.0906 -0.0024 0.0059
v  -0.0938 0.0016 0.0039
v  -0.0906 0.0024 0.0059
v  -0.0938 0.0039 0.0016
v  -0.0906 0.0059 0.0024
v  -0.0938 0.0039 -0.0016
v  -0.0906 0.0059 -0.0024
v  -0.0938 0.0016 -0.0039
v  -0.0906 0.0024 -0.0059
v  -0.0938 -0.0016 -0.0039
v  -0.0906 -0.0024 -0.0059
v  -0.0938 -0.0039 -0.0016
v  -0.0906 -0.0059 -0.0024
v  -0.0938 0.0000 -0.0000
v  -0.0281 -0.0032 0.0078
v  -0.0281 -0.0078 0.0032
v  -0.0281 0.0032 0.0078
v  -0.0281 0.0078 0.0032
v  -0.0281 0.0078 -0.0032
v  -0.0281 0.0032 -0.0078
v  -0.0281 -0.0032 -0.0078
v  -0.0281 -0.0078 -0.0032
v  -0.0688 -0.0078 0.0032
v  -0.0688 -0.0032 0.0078
v  -0.0688 0.0032 0.0078
v  -0.0688 0.0078 0.0032
v  -0.0875 0.0094 0.0023
v  -0.0688 0.0113 0.0031
v  -0.0688 0.0113 -0.0031
v  -0.0875 0.0094 -0.0023
v  -0.0688 0.0078 -0.0032
v  -0.0688 0.0032 -0.0078
v  -0.0688 -0.0032 -0.0078
v  -0.0688 -0.0078 -0.0032
v  -0.0313 0.0113 -0.0031
v  -0.0313 0.0113 0.0031
# 64 vertices

vn 0.1615 -0.4988 0.8516
vn 0.1614 -0.9548 0.2494
vn 0.7350 -0.5850 0.3428
vn 0.7350 -0.1713 0.6561
vn 0.1615 0.2494 0.9549
vn 0.7350 0.3427 0.5851
vn 0.1615 0.8515 0.4989
vn 0.7350 0.6560 0.1714
vn 0.1615 0.9548 -0.2494
vn 0.7350 0.5851 -0.3428
vn 0.1615 0.4988 -0.8516
vn 0.7350 0.1714 -0.6561
vn 0.1615 -0.2494 -0.9548
vn 0.7350 -0.3427 -0.5851
vn 0.1615 -0.8515 -0.4989
vn 0.7350 -0.6561 -0.1714
vn 1.0000 0.0000 0.0000
vn 0.0000 -0.9239 0.3827
vn 0.0000 -0.3827 0.9239
vn 0.0000 0.3826 0.9239
vn 0.0000 0.9239 0.3827
vn 0.0000 0.9239 -0.3827
vn 0.0000 0.3826 -0.9239
vn 0.0000 -0.3827 -0.9239
vn 0.0000 -0.9239 -0.3827
vn -0.8342 -0.2786 0.4758
vn -0.8342 -0.5335 0.1394
vn -0.3386 -0.8118 0.4757
vn -0.3386 -0.2377 0.9104
vn -0.8342 0.1394 0.5335
vn -0.3386 0.4755 0.8119
vn -0.8342 0.4758 0.2787
vn -0.4490 0.6718 0.5891
vn -0.8342 0.5335 -0.1393
vn -0.4800 0.7038 -0.5237
vn -0.8342 0.2787 -0.4758
vn -0.3386 0.2378 -0.9104
vn -0.8343 -0.1392 -0.5335
vn -0.3387 -0.4755 -0.8119
vn -0.8343 -0.4757 -0.2787
vn -0.3386 -0.9104 -0.2378
vn -1.0000 0.0000 0.0000
vn 0.2306 0.8456 0.4815
vn 0.1314 0.6767 -0.7245
vn -0.0482 -0.9227 0.3825
vn -0.0482 -0.3820 0.9229
vn -0.0482 0.3824 0.9227
vn -0.0390 0.3964 0.9172
vn -0.4445 0.8593 0.2531
vn -0.0443 0.7212 0.6913
vn -0.0585 0.7159 -0.6957
vn -0.3332 0.6220 -0.7086
vn -0.0315 0.4014 -0.9153
vn -0.0482 0.3819 -0.9229
vn -0.0482 -0.3825 -0.9227
vn -0.0482 -0.9229 -0.3820
vn 0.3922 0.8817 -0.2621
vn 0.2722 0.6292 0.7281
# 58 vertex normals

vt 0.2098 0.8131 0.0000
vt 0.2382 0.8131 0.0000
vt 0.2135 0.8808 0.0000
vt 0.1941 0.8774 0.0000
vt 0.1815 0.8131 0.0000
vt 0.1719 0.8764 0.0000
vt 0.1533 0.8131 0.0000
vt 0.1480 0.8763 0.0000
vt 0.1251 0.8133 0.0000
vt 0.1233 0.8766 0.0000
vt 0.0969 0.8134 0.0000
vt 0.0987 0.8769 0.0000
vt 0.0687 0.8137 0.0000
vt 0.0754 0.8768 0.0000
vt 0.0404 0.8140 0.0000
vt 0.0545 0.8779 0.0000
vt 0.0120 0.8143 0.0000
vt 0.0373 0.8820 0.0000
vt 0.1998 0.9025 0.0000
vt 0.1817 0.8994 0.0000
vt 0.1598 0.8961 0.0000
vt 0.1359 0.8957 0.0000
vt 0.1115 0.8958 0.0000
vt 0.0869 0.8959 0.0000
vt 0.0663 0.8983 0.0000
vt 0.0508 0.9008 0.0000
vt 0.2363 0.3614 0.0000
vt 0.2079 0.3615 0.0000
vt 0.1795 0.3617 0.0000
vt 0.1512 0.3618 0.0000
vt 0.1228 0.3620 0.0000
vt 0.0945 0.3621 0.0000
vt 0.0661 0.3622 0.0000
vt 0.0377 0.3624 0.0000
vt 0.0094 0.3625 0.0000
vt 0.1865 0.0281 0.0000
vt 0.2055 0.0270 0.0000
vt 0.2113 0.0461 0.0000
vt 0.1888 0.0466 0.0000
vt 0.1667 0.0282 0.0000
vt 0.1663 0.0467 0.0000
vt 0.1457 0.0278 0.0000
vt 0.1437 0.0467 0.0000
vt 0.1225 0.0265 0.0000
vt 0.1207 0.0461 0.0000
vt 0.0987 0.0255 0.0000
vt 0.0975 0.0463 0.0000
vt 0.0752 0.0265 0.0000
vt 0.0742 0.0463 0.0000
vt 0.0542 0.0266 0.0000
vt 0.0510 0.0461 0.0000
vt 0.0326 0.0257 0.0000
vt 0.0281 0.0457 0.0000
vt 0.1961 0.0079 0.0000
vt 0.1761 0.0079 0.0000
vt 0.1578 0.0079 0.0000
vt 0.1353 0.0079 0.0000
vt 0.1115 0.0079 0.0000
vt 0.0880 0.0079 0.0000
vt 0.0644 0.0079 0.0000
vt 0.0442 0.0079 0.0000
vt 0.2083 0.3332 0.0000
vt 0.2367 0.3323 0.0000
vt 0.1800 0.3340 0.0000
vt 0.1517 0.3349 0.0000
vt 0.1225 0.3347 0.0000
vt 0.0943 0.3342 0.0000
vt 0.0660 0.3338 0.0000
vt 0.0377 0.3334 0.0000
vt 0.0093 0.3330 0.0000
vt 0.2263 0.1485 0.0000
vt 0.1995 0.1487 0.0000
vt 0.1728 0.1489 0.0000
vt 0.1460 0.1490 0.0000
vt 0.2858 0.9710 0.0000
vt 0.2014 0.9738 0.0000
vt 0.2014 0.9460 0.0000
vt 0.2859 0.9497 0.0000
vt 0.1245 0.1488 0.0000
vt 0.0970 0.1488 0.0000
vt 0.0697 0.1487 0.0000
vt 0.0424 0.1486 0.0000
vt 0.0149 0.1484 0.0000
vt 0.0344 0.9459 0.0000
vt 0.0344 0.9738 0.0000
vt 0.3017 0.9851 0.0000
vt 0.2020 0.9894 0.0000
vt 0.2019 0.9303 0.0000
vt 0.3023 0.9357 0.0000
vt 0.3076 0.9491 0.0000
vt 0.3077 0.9715 0.0000
vt 0.0205 0.9302 0.0000
vt 0.0204 0.9895 0.0000
vt 0.0134 0.9743 0.0000
vt 0.0134 0.9454 0.0000
# 95 texture coords

o Utensil_Marker_obj
g Utensil_Marker_obj
s 1
f 1/1/1 2/2/2 3/3/3 
f 1/1/1 3/3/3 4/4/4 
f 5/5/5 1/1/1 4/4/4 
f 5/5/5 4/4/4 6/6/6 
f 7/7/7 5/5/5 6/6/6 
f 7/7/7 6/6/6 8/8/8 
f 9/9/9 7/7/7 8/8/8 
f 9/9/9 8/8/8 10/10/10 
f 11/11/11 9/9/9 10/10/10 
f 11/11/11 10/10/10 12/12/12 
f 13/13/13 11/11/11 12/12/12 
f 13/13/13 12/12/12 14/14/14 
f 15/15/15 13/13/13 14/14/14 
f 15/15/15 14/14/14 16/16/16 
f 2/17/2 15/15/15 16/16/16 
f 2/17/2 16/16/16 3/18/3 
f 3/3/3 17/19/17 4/4/4 
f 4/4/4 17/20/17 6/6/6 
f 6/6/6 17/21/17 8/8/8 
f 8/8/8 17/22/17 10/10/10 
f 10/10/10 17/23/17 12/12/12 
f 12/12/12 17/24/17 14/14/14 
f 14/14/14 17/25/17 16/16/16 
f 16/16/16 17/26/17 3/18/3 
f 18/27/18 2/2/2 1/1/1 
f 18/27/18 1/1/1 19/28/19 
f 19/28/19 1/1/1 5/5/5 
f 19/28/19 5/5/5 20/29/20 
f 20/29/20 5/5/5 7/7/7 
f 20/29/20 7/7/7 21/30/21 
f 21/30/21 7/7/7 9/9/9 
f 21/30/21 9/9/9 22/31/22 
f 22/31/22 9/9/9 11/11/11 
f 22/31/22 11/11/11 23/32/23 
f 23/32/23 11/11/11 13/13/13 
f 23/32/23 13/13/13 24/33/24 
f 24/33/24 13/13/13 15/15/15 
f 24/33/24 15/15/15 25/34/25 
f 25/34/25 15/15/15 2/17/2 
f 25/34/25 2/17/2 18/35/18 
f 26/36/26 27/37/27 28/38/28 
f 26/36/26 28/38/28 29/39/29 
f 30/40/30 26/36/26 29/39/29 
f 30/40/30 29/39/29 31/41/31 
f 32/42/32 30/40/30 31/41/31 
f 32/42/32 31/41/31 33/43/33 
f 34/44/34 32/42/32 33/43/33 
f 34/44/34 33/43/33 35/45/35 
f 36/46/36 34/44/34 35/45/35 
f 36/46/36 35/45/35 37/47/37 
f 38/48/38 36/46/36 37/47/37 
f 38/48/38 37/47/37 39/49/39 
f 40/50/40 38/48/38 39/49/39 
f 40/50/40 39/49/39 41/51/41 
f 27/52/27 40/50/40 41/51/41 
f 27/52/27 41/51/41 28/53/28 
f 26/36/26 42/54/42 27/37/27 
f 30/40/30 42/55/42 26/36/26 
f 32/42/32 42/56/42 30/40/30 
f 34/44/34 42/57/42 32/42/32 
f 36/46/36 42/58/42 34/44/34 
f 38/48/38 42/59/42 36/46/36 
f 40/50/40 42/60/42 38/48/38 
f 27/52/27 42/61/42 40/50/40 
f 19/28/19 43/62/19 44/63/18 
f 19/28/19 44/63/18 18/27/18 
f 20/29/20 45/64/20 43/62/19 
f 20/29/20 43/62/19 19/28/19 
f 21/30/21 46/65/43 45/64/20 
f 21/30/21 45/64/20 20/29/20 
f 22/31/22 47/66/44 46/65/43 
f 22/31/22 46/65/43 21/30/21 
f 23/32/23 48/67/23 47/66/44 
f 23/32/23 47/66/44 22/31/22 
f 24/33/24 49/68/24 48/67/23 
f 24/33/24 48/67/23 23/32/23 
f 25/34/25 50/69/25 49/68/24 
f 25/34/25 49/68/24 24/33/24 
f 18/35/18 44/70/18 50/69/25 
f 18/35/18 50/69/25 25/34/25 
f 28/38/28 51/71/45 52/72/46 
f 28/38/28 52/72/46 29/39/29 
f 29/39/29 52/72/46 53/73/47 
f 29/39/29 53/73/47 31/41/31 
f 31/41/31 53/73/47 54/74/48 
f 31/41/31 54/74/48 33/43/33 
f 55/75/49 56/76/50 57/77/51 
f 55/75/49 57/77/51 58/78/52 
f 35/45/35 59/79/53 60/80/54 
f 35/45/35 60/80/54 37/47/37 
f 37/47/37 60/80/54 61/81/55 
f 37/47/37 61/81/55 39/49/39 
f 39/49/39 61/81/55 62/82/56 
f 39/49/39 62/82/56 41/51/41 
f 41/51/41 62/82/56 51/83/45 
f 41/51/41 51/83/45 28/53/28 
f 43/62/19 52/72/46 51/71/45 
f 43/62/19 51/71/45 44/63/18 
f 45/64/20 53/73/47 52/72/46 
f 45/64/20 52/72/46 43/62/19 
f 46/65/43 54/74/48 53/73/47 
f 46/65/43 53/73/47 45/64/20 
f 63/84/57 57/77/51 56/76/50 
f 63/84/57 56/76/50 64/85/58 
f 48/67/23 60/80/54 59/79/53 
f 48/67/23 59/79/53 47/66/44 
f 49/68/24 61/81/55 60/80/54 
f 49/68/24 60/80/54 48/67/23 
f 50/69/25 62/82/56 61/81/55 
f 50/69/25 61/81/55 49/68/24 
f 44/70/18 51/83/45 62/82/56 
f 44/70/18 62/82/56 50/69/25 
f 33/86/33 54/87/48 56/76/50 
f 33/86/33 56/76/50 55/75/49 
f 59/88/53 35/89/35 58/78/52 
f 59/88/53 58/78/52 57/77/51 
f 35/90/35 33/91/33 55/75/49 
f 35/90/35 55/75/49 58/78/52 
f 47/92/44 59/88/53 57/77/51 
f 47/92/44 57/77/51 63/84/57 
f 54/87/48 46/93/43 64/85/58 
f 54/87/48 64/85/58 56/76/50 
f 46/94/43 47/95/44 63/84/57 
f 46/94/43 63/84/57 64/85/58 
# 0 polygons - 124 triangles

