# 3ds Max Wavefront OBJ Exporter v0.99 - (c)2007 guruware
# File Created: 02.09.2021 11:34:31

mtllib Binder.mtl

#
# object Binder_obj
#

v  -0.1940 0.0000 0.1564
v  -0.1940 0.0063 0.1564
v  -0.1940 0.0063 -0.0039
v  -0.1940 0.0000 -0.0039
v  -0.1752 0.0563 0.1283
v  -0.1752 0.0563 -0.0039
v  -0.1752 0.0063 -0.0039
v  -0.1752 0.0063 0.1283
v  -0.1940 0.0563 0.1564
v  -0.1940 0.0626 0.1564
v  -0.1940 0.0626 -0.0039
v  -0.1940 0.0563 -0.0039
v  -0.1940 0.0000 -0.1564
v  -0.1940 0.0063 -0.1502
v  -0.1940 0.0563 -0.1502
v  -0.1940 0.0626 -0.1564
v  0.0000 0.0063 0.1564
v  0.0000 0.0063 0.1283
v  -0.1815 0.0063 -0.1502
v  -0.1815 0.0563 -0.1502
v  -0.1752 0.0563 -0.1502
v  -0.1752 0.0407 -0.1252
v  -0.1815 0.0219 -0.1252
v  -0.1815 0.0407 -0.1252
v  -0.1752 0.0063 -0.1502
v  -0.1752 0.0219 -0.1252
v  0.0000 0.0000 -0.1564
v  0.0000 0.0626 -0.1564
v  0.0000 0.0000 0.1564
v  0.0000 0.0563 0.1283
v  0.0000 0.0626 0.1564
v  0.0000 0.0563 0.1564
v  0.1940 0.0000 -0.1564
v  0.1940 0.0063 -0.1502
v  0.1940 0.0063 -0.0039
v  0.1940 0.0000 -0.0039
v  0.1752 0.0063 0.1283
v  0.1752 0.0063 -0.0039
v  0.1752 0.0563 -0.0039
v  0.1752 0.0563 0.1283
v  0.1752 0.0063 -0.1502
v  0.1752 0.0219 -0.1252
v  0.1940 0.0563 -0.1502
v  0.1940 0.0626 -0.1564
v  0.1940 0.0626 -0.0039
v  0.1940 0.0563 -0.0039
v  0.1815 0.0563 -0.1502
v  0.1940 0.0063 0.1564
v  0.1815 0.0063 -0.1502
v  0.1815 0.0407 -0.1252
v  0.1815 0.0219 -0.1252
v  0.1752 0.0407 -0.1252
v  0.1752 0.0563 -0.1502
v  0.1940 0.0000 0.1564
v  0.1940 0.0563 0.1564
v  0.1940 0.0626 0.1564
v  0.0000 0.0626 -0.0039
v  0.0000 0.0000 -0.0039
# 58 vertices

vn -0.5774 -0.5774 0.5774
vn -0.3015 0.9045 0.3015
vn -0.7071 0.7071 0.0000
vn -0.7071 -0.7071 0.0000
vn -0.4082 -0.8165 0.4082
vn -0.8000 -0.6000 0.0000
vn -0.8000 0.6000 0.0000
vn -0.4082 0.8165 0.4082
vn -0.8944 0.4472 0.0000
vn -0.4472 -0.8944 0.0000
vn -0.8729 -0.4364 -0.2182
vn -0.6667 0.3333 0.6667
vn -0.9428 -0.2357 0.2357
vn -0.5774 0.5774 -0.5774
vn 0.0000 0.7071 0.7071
vn 0.0000 0.9487 0.3162
vn 0.0000 -0.8321 0.5547
vn -1.0000 0.0000 0.0000
vn -0.8944 -0.3792 0.2370
vn -0.2748 -0.4661 0.8410
vn -0.7527 0.3191 0.5758
vn -0.4472 0.7585 0.4740
vn 0.0000 -0.8480 0.5300
vn 0.0000 -0.4848 0.8746
vn 0.0000 0.4848 0.8746
vn 0.0000 0.8480 0.5300
vn 0.0000 -0.5547 -0.8321
vn 0.0000 0.5547 -0.8321
vn 0.0000 -0.5547 0.8321
vn 0.0000 -0.7071 0.7071
vn 0.0000 0.5547 0.8321
vn 0.7276 -0.4851 -0.4851
vn 0.9045 0.3015 0.3015
vn 0.7071 0.7071 0.0000
vn 0.7071 -0.7071 0.0000
vn 0.4082 0.8165 0.4082
vn 0.8000 0.6000 0.0000
vn 0.8000 -0.6000 0.0000
vn 0.3015 -0.9045 0.3015
vn 1.0000 0.0000 0.0000
vn 0.8018 -0.2673 0.5345
vn 0.8018 0.5345 -0.2673
vn 0.8944 0.4472 0.0000
vn 0.4472 -0.8944 0.0000
vn 0.0000 -0.9487 0.3162
vn 0.3333 0.6667 0.6667
vn 0.0000 0.8321 0.5547
vn 0.8944 0.3792 0.2370
vn 0.2748 0.4661 0.8410
vn 0.7527 -0.3191 0.5758
vn 0.4472 -0.7585 0.4740
vn 0.6667 -0.6667 0.3333
vn 0.5345 -0.8018 0.2673
vn 0.0000 1.0000 0.0000
vn 0.0000 -1.0000 0.0000
# 55 vertex normals

vt 0.0363 0.7939 0.0000
vt 0.0295 0.7939 0.0000
vt 0.0295 0.6201 0.0000
vt 0.0363 0.6201 0.0000
vt 0.3101 0.9887 0.0000
vt 0.1668 0.9889 0.0000
vt 0.1667 0.9347 0.0000
vt 0.3100 0.9344 0.0000
vt 0.0295 0.0478 0.0000
vt 0.0363 0.0478 0.0000
vt 0.0363 0.2216 0.0000
vt 0.0295 0.2216 0.0000
vt 0.0363 0.4548 0.0000
vt 0.0295 0.4480 0.0000
vt 0.0295 0.3937 0.0000
vt 0.0363 0.3870 0.0000
vt 0.0363 0.8007 0.0000
vt 0.2466 0.8007 0.0000
vt 0.2466 0.8313 0.0000
vt 0.0567 0.8313 0.0000
vt 0.0160 0.4480 0.0000
vt 0.0160 0.3937 0.0000
vt 0.0160 0.4616 0.0000
vt 0.0295 0.4616 0.0000
vt 0.0083 0.9892 0.0000
vt 0.0354 0.9722 0.0000
vt 0.9884 0.8623 0.0000
vt 0.9612 0.8454 0.0000
vt 0.9612 0.8251 0.0000
vt 0.9883 0.8081 0.0000
vt 0.9848 0.8681 0.0000
vt 0.9576 0.8512 0.0000
vt 0.9544 0.8454 0.0000
vt 0.9544 0.8251 0.0000
vt 0.9576 0.8193 0.0000
vt 0.9847 0.8023 0.0000
vt 0.2466 0.4548 0.0000
vt 0.2466 0.3870 0.0000
vt 0.2466 0.7939 0.0000
vt 0.5000 0.9341 0.0000
vt 0.5000 0.9884 0.0000
vt 0.2466 0.0478 0.0000
vt 0.0363 0.0410 0.0000
vt 0.2466 0.0410 0.0000
vt 0.0567 0.0105 0.0000
vt 0.2466 0.0105 0.0000
vt 0.0092 0.0783 0.0000
vt 0.0092 0.2216 0.0000
vt 0.0092 0.6201 0.0000
vt 0.0092 0.4616 0.0000
vt 0.4569 0.4548 0.0000
vt 0.4636 0.4616 0.0000
vt 0.4636 0.6201 0.0000
vt 0.4569 0.6201 0.0000
vt 0.6899 0.9339 0.0000
vt 0.8332 0.9336 0.0000
vt 0.8333 0.9879 0.0000
vt 0.6900 0.9881 0.0000
vt 0.9917 0.9334 0.0000
vt 0.9646 0.9504 0.0000
vt 0.4636 0.3802 0.0000
vt 0.4569 0.3870 0.0000
vt 0.4569 0.2216 0.0000
vt 0.4636 0.2216 0.0000
vt 0.4636 0.3937 0.0000
vt 0.4636 0.4480 0.0000
vt 0.4772 0.3802 0.0000
vt 0.4365 0.8313 0.0000
vt 0.4569 0.8007 0.0000
vt 0.4772 0.3937 0.0000
vt 0.4772 0.4480 0.0000
vt 0.4930 0.8042 0.0000
vt 0.5201 0.8212 0.0000
vt 0.5201 0.8415 0.0000
vt 0.4930 0.8585 0.0000
vt 0.5237 0.8473 0.0000
vt 0.4966 0.8643 0.0000
vt 0.5269 0.8212 0.0000
vt 0.5269 0.8415 0.0000
vt 0.4965 0.7985 0.0000
vt 0.5237 0.8154 0.0000
vt 0.4569 0.7939 0.0000
vt 0.4569 0.0410 0.0000
vt 0.4569 0.0478 0.0000
vt 0.4365 0.0105 0.0000
vt 0.4840 0.2216 0.0000
vt 0.4840 0.3802 0.0000
vt 0.4840 0.7634 0.0000
vt 0.4636 0.7939 0.0000
vt 0.4840 0.6201 0.0000
vt 0.2466 0.2216 0.0000
vt 0.2466 0.6201 0.0000
vt 0.0353 0.9518 0.0000
vt 0.0082 0.9349 0.0000
vt 0.0295 0.3802 0.0000
vt 0.0160 0.3802 0.0000
vt 0.0092 0.3802 0.0000
vt 0.0092 0.7634 0.0000
vt 0.9647 0.9707 0.0000
vt 0.4636 0.0478 0.0000
vt 0.4772 0.4616 0.0000
vt 0.9918 0.9877 0.0000
vt 0.4840 0.0783 0.0000
vt 0.4840 0.4616 0.0000
# 104 texture coords

o Binder_obj
g Binder_obj
usemtl default
s 1
f 1/1/1 2/2/2 3/3/3 
f 1/1/1 3/3/3 4/4/4 
f 5/5/5 6/6/6 7/7/7 
f 5/5/5 7/7/7 8/8/2 
f 9/9/1 10/10/8 11/11/9 
f 9/9/1 11/11/9 12/12/10 
f 13/13/11 14/14/12 15/15/13 
f 13/13/11 15/15/13 16/16/14 
f 2/17/2 17/18/15 18/19/15 
f 2/17/2 18/19/15 8/20/2 
f 14/14/12 19/21/16 20/22/17 
f 14/14/12 20/22/17 15/15/13 
f 19/23/16 14/24/12 3/3/3 
f 21/25/4 22/26/18 6/6/6 
f 19/27/19 23/28/20 24/29/21 
f 19/27/19 24/29/21 20/30/22 
f 25/31/23 26/32/24 23/28/20 
f 25/31/23 23/28/20 19/27/19 
f 23/28/20 26/33/24 22/34/25 
f 23/28/20 22/34/25 24/29/21 
f 22/35/25 21/36/26 20/30/22 
f 22/35/25 20/30/22 24/29/21 
f 27/37/27 13/13/11 16/16/14 
f 27/37/27 16/16/14 28/38/28 
f 17/18/15 2/17/2 1/1/1 
f 17/18/15 1/1/1 29/39/29 
f 5/5/5 8/8/2 18/40/15 
f 5/5/5 18/40/15 30/41/30 
f 31/42/31 10/10/8 9/43/1 
f 31/42/31 9/43/1 32/44/30 
f 32/44/30 9/43/1 5/45/5 
f 32/44/30 5/45/5 30/46/30 
f 5/47/5 9/9/1 12/12/10 
f 5/47/5 12/12/10 6/48/6 
f 19/23/16 3/3/3 7/49/7 
f 7/49/7 25/50/3 19/23/16 
f 33/51/32 34/52/33 35/53/34 
f 33/51/32 35/53/34 36/54/35 
f 37/55/36 38/56/37 39/57/38 
f 37/55/36 39/57/38 40/58/39 
f 41/59/34 42/60/40 38/56/37 
f 43/61/41 44/62/42 45/63/43 
f 43/61/41 45/63/43 46/64/44 
f 44/62/42 43/65/41 34/66/33 
f 44/62/42 34/66/33 33/51/32 
f 47/67/45 43/61/41 46/64/44 
f 37/68/36 18/19/15 17/18/15 
f 37/68/36 17/18/15 48/69/46 
f 43/65/41 47/70/45 49/71/47 
f 43/65/41 49/71/47 34/66/33 
f 47/72/48 50/73/49 51/74/50 
f 47/72/48 51/74/50 49/75/51 
f 49/75/51 51/74/50 42/76/24 
f 49/75/51 42/76/24 41/77/23 
f 50/73/49 52/78/25 42/79/24 
f 50/73/49 42/79/24 51/74/50 
f 50/73/49 47/72/48 53/80/26 
f 50/73/49 53/80/26 52/81/25 
f 28/38/28 44/62/42 33/51/32 
f 28/38/28 33/51/32 27/37/27 
f 29/39/29 54/82/52 48/69/46 
f 29/39/29 48/69/46 17/18/15 
f 30/41/30 18/40/15 37/55/36 
f 30/41/30 37/55/36 40/58/39 
f 32/44/30 55/83/53 56/84/46 
f 32/44/30 56/84/46 31/42/31 
f 30/46/30 40/85/39 55/83/53 
f 30/46/30 55/83/53 32/44/30 
f 47/67/45 46/64/44 39/86/38 
f 39/86/38 53/87/35 47/67/45 
f 37/88/36 48/89/46 35/53/34 
f 37/88/36 35/53/34 38/90/37 
f 16/16/14 11/11/9 57/91/54 
f 57/91/54 28/38/28 16/16/14 
f 56/84/46 45/63/43 57/91/54 
f 57/91/54 31/42/31 56/84/46 
f 13/13/11 27/37/27 58/92/55 
f 13/13/11 58/92/55 4/4/4 
f 54/82/52 29/39/29 58/92/55 
f 54/82/52 58/92/55 36/54/35 
f 3/3/3 14/24/12 13/13/11 
f 3/3/3 13/13/11 4/4/4 
f 6/6/6 22/26/18 26/93/18 
f 6/6/6 26/93/18 7/7/7 
f 7/7/7 26/93/18 25/94/3 
f 11/11/9 16/16/14 15/95/13 
f 11/11/9 15/95/13 12/12/10 
f 12/12/10 15/95/13 20/96/17 
f 20/96/17 21/97/4 6/48/6 
f 6/48/6 12/12/10 20/96/17 
f 3/3/3 2/2/2 8/98/2 
f 3/3/3 8/98/2 7/49/7 
f 35/53/34 48/89/46 54/82/52 
f 35/53/34 54/82/52 36/54/35 
f 38/56/37 42/60/40 52/99/40 
f 38/56/37 52/99/40 39/57/38 
f 45/63/43 56/84/46 55/100/53 
f 45/63/43 55/100/53 46/64/44 
f 35/53/34 34/52/33 49/101/47 
f 39/57/38 52/99/40 53/102/35 
f 46/64/44 55/100/53 40/103/39 
f 46/64/44 40/103/39 39/86/38 
f 49/101/47 41/104/34 38/90/37 
f 38/90/37 35/53/34 49/101/47 
f 10/10/8 31/42/31 57/91/54 
f 57/91/54 11/11/9 10/10/8 
f 44/62/42 28/38/28 57/91/54 
f 57/91/54 45/63/43 44/62/42 
f 58/92/55 29/39/29 1/1/1 
f 58/92/55 1/1/1 4/4/4 
f 58/92/55 27/37/27 33/51/32 
f 58/92/55 33/51/32 36/54/35 
# 0 polygons - 112 triangles

