%YAML 1.1
%TAG !u! tag:unity3d.com,2011:
--- !u!114 &11400000
MonoBehaviour:
  m_ObjectHideFlags: 0
  m_CorrespondingSourceObject: {fileID: 0}
  m_PrefabInstance: {fileID: 0}
  m_PrefabAsset: {fileID: 0}
  m_GameObject: {fileID: 0}
  m_Enabled: 1
  m_EditorHideFlags: 0
  m_Script: {fileID: 11500000, guid: 5e1d9f35d9427aa4bad9a686f2b33217, type: 3}
  m_Name: PlayersInventory
  m_EditorClassIdentifier: 
  hasAxe: 0
  hasPistol: 0
  pistolCurrentAmmo: {fileID: 11400000, guid: 05bfca4c8991a3b47bc1d64fb57d15f0, type: 2}
  pistolMaxAmmo: {fileID: 11400000, guid: 2898cbeaa3968ca4bba8dfd3a1c61fb7, type: 2}
  pistolCurrentCapacity: {fileID: 11400000, guid: d4b7e863d3b4f804e815b22b9984ec06, type: 2}
  pistolMaxCapacity: {fileID: 11400000, guid: edf6177b186162c479b087e5cb8f835e, type: 2}
  hasShotgun: 0
  shotgunCurrentAmmo: {fileID: 11400000, guid: ed0500a1c402fc04a976ef7029071603, type: 2}
  shotgunMaxAmmo: {fileID: 11400000, guid: 1bdf2bda917a2ae48b68e237a52926e2, type: 2}
  shotgunCurrentCapacity: {fileID: 11400000, guid: 6813b6f39762bdf4abce2c363bbb162e, type: 2}
  shotgunMaxCapacity: {fileID: 11400000, guid: a33474242673864439422b06a25d1e17, type: 2}
  hasSMG: 0
  sMGCurrentAmmo: {fileID: 11400000, guid: c566fc964b2852649b752162e4a5ebcf, type: 2}
  sMGMaxAmmo: {fileID: 11400000, guid: c902ab54d3165fc4ca529244123b93ad, type: 2}
  sMGCurrentCapacity: {fileID: 11400000, guid: 54c4857892fffbe4f954d43d33766d2b, type: 2}
  sMGMaxCapacity: {fileID: 11400000, guid: 598a5b7edcddc3e4aaad96ce1f6a6b33, type: 2}
  hasGrenade: 0
  grenadeCurrentAmmo: {fileID: 11400000, guid: 7e81d681cdc22154c95490b1ea5b5f46, type: 2}
  grenadeMaxAmmo: {fileID: 11400000, guid: 374981f359407324280f22e0ada4bdc0, type: 2}
