# 3ds Max Wavefront OBJ Exporter v0.99 - (c)2007 guruware
# File Created: 31.08.2021 13:25:00

newmtl default
	Kd 0.5000 0.5000 0.5000
	Ks 1.0000 1.0000 1.0000
	Tr 0.0000
	d 1.0000
	Tf 1.0000 1.0000 1.0000
	Pr 0.0000
	Pm 0.0000
	Pc 0.0000
	Pcr 0.0000
	Ni 1.5200
	Ke 0.0000 0.0000 0.0000
	illum 2
